%!PS-Adobe-3.0
%%BoundingBox: 0 0 612 792
%%LanguageLevel: 2
%%Creator: Grace-5.1.25
%%CreationDate: Mon May  4 17:44:09 2020
%%DocumentData: Clean8Bit
%%Orientation: Landscape
%%Pages: 1
%%PageOrder: Ascend
%%Title: OpcondDC.dat
%%For: luis
%%DocumentNeededResources: (atend)
%%EndComments
%%BeginProlog
/PAGE_OFFSET_X 0 def
/PAGE_OFFSET_Y 0 def
/m {moveto} def
/l {lineto} def
/s {stroke} def
/n {newpath} def
/c {closepath} def
/RL {rlineto} def
/SLW {setlinewidth} def
/GS {gsave} def
/GR {grestore} def
/SC {setcolor} def
/SGRY {setgray} def
/SRGB {setrgbcolor} def
/SD {setdash} def
/SLC {setlinecap} def
/SLJ {setlinejoin} def
/SCS {setcolorspace} def
/FFSF {findfont setfont} def
/CC {concat} def
/PXL {n m 0 0 RL s} def
/Color0 {1.0000 1.0000 1.0000} def
/Color1 {0.0000 0.0000 0.0000} def
/Color2 {1.0000 0.0000 0.0000} def
/Color3 {0.0000 1.0000 0.0000} def
/Color4 {0.0000 0.0000 1.0000} def
/Color5 {1.0000 1.0000 0.0000} def
/Color6 {0.7373 0.5608 0.5608} def
/Color7 {0.8627 0.8627 0.8627} def
/Color8 {0.5804 0.0000 0.8275} def
/Color9 {0.0000 1.0000 1.0000} def
/Color10 {1.0000 0.0000 1.0000} def
/Color11 {1.0000 0.6471 0.0000} def
/Color12 {0.4471 0.1294 0.7373} def
/Color13 {0.4039 0.0275 0.2824} def
/Color14 {0.2510 0.8784 0.8157} def
/Color15 {0.0000 0.5451 0.0000} def
/Color16 {0.7529 0.7529 0.7529} def
/Color17 {0.5059 0.5059 0.5059} def
/Color18 {0.2588 0.2588 0.2588} def
/PTRN {
 /pat_bits exch def 
 <<
  /PaintType 2
  /PatternType 1 /TilingType 1
  /BBox[0 0 16 16]
  /XStep 16 /YStep 16
  /PaintProc {
   pop
   16 16 true [-1 0 0 -1 16 16] pat_bits imagemask
  }
 >>
 [0.0016 0 0 0.0016 0 0]
 makepattern
} def
/Pattern0 {<0000000000000000000000000000000000000000000000000000000000000000> PTRN} bind def
/Pattern1 {<ffffffffffffffffffffffffffffffffffffffffffffffffffffffffffffffff> PTRN} bind def
/Pattern2 {<eeeeffffbbbbffffeeeeffffbbbbffffeeeeffffbbbbffffeeeeffffbbbbffff> PTRN} bind def
/Pattern3 {<eeeebbbbeeeebbbbeeeebbbbeeeebbbbeeeebbbbeeeebbbbeeeebbbbeeeebbbb> PTRN} bind def
/Pattern4 {<5555aaaa5555aaaa5555aaaa5555aaaa5555aaaa5555aaaa5555aaaa5555aaaa> PTRN} bind def
/Pattern5 {<1111444411114444111144441111444411114444111144441111444411114444> PTRN} bind def
/Pattern6 {<1111000044440000111100004444000011110000444400001111000044440000> PTRN} bind def
/Pattern7 {<1010000000000000010100000000000010100000000000000101000000000000> PTRN} bind def
/Pattern8 {<0000000000000000000000000000000000000000000000000000000000000000> PTRN} bind def
/Pattern9 {<1e1e0f0f8787c3c3e1e1f0f078783c3c1e1e0f0f8787c3c3e1e1f0f078783c3c> PTRN} bind def
/Pattern10 {<7878f0f0e1e1c3c387870f0f1e1e3c3c7878f0f0e1e1c3c387870f0f1e1e3c3c> PTRN} bind def
/Pattern11 {<3333333333333333333333333333333333333333333333333333333333333333> PTRN} bind def
/Pattern12 {<ffffffff00000000ffffffff00000000ffffffff00000000ffffffff00000000> PTRN} bind def
/Pattern13 {<8181424224241818181824244242818181814242242418181818242442428181> PTRN} bind def
/Pattern14 {<8080404020201010080804040202010180804040202010100808040402020101> PTRN} bind def
/Pattern15 {<0101020204040808101020204040808001010202040408081010202040408080> PTRN} bind def
/Pattern16 {<2222222222222222222222222222222222222222222222222222222222222222> PTRN} bind def
/Pattern17 {<0000ffff000000000000ffff000000000000ffff000000000000ffff00000000> PTRN} bind def
/Pattern18 {<2222ffff222222222222ffff222222222222ffff222222222222ffff22222222> PTRN} bind def
/Pattern19 {<ffffffff33333333ffffffff33333333ffffffff33333333ffffffff33333333> PTRN} bind def
/Pattern20 {<0f0f0f0f0f0f0f0ff0f0f0f0f0f0f0f00f0f0f0f0f0f0f0ff0f0f0f0f0f0f0f0> PTRN} bind def
/Pattern21 {<ff00ff00ff00ff00ff00ff00ff00ff0000ff00ff00ff00ff00ff00ff00ff00ff> PTRN} bind def
/Pattern22 {<8001800180018001800180018001ffffffff8001800180018001800180018001> PTRN} bind def
/Pattern23 {<c003c003c003c003c003c003ffffffffffffffffc003c003c003c003c003c003> PTRN} bind def
/Pattern24 {<040404040404ffff404040404040ffff040404040404ffff404040404040ffff> PTRN} bind def
/Pattern25 {<180018001800180018001800ffffffff001800180018001800180018ffffffff> PTRN} bind def
/Pattern26 {<1111b8b87c7c3a3a1111a3a3c7c78b8b1111b8b87c7c3a3a1111a3a3c7c78b8b> PTRN} bind def
/Pattern27 {<101010102828c7c70101010182827c7c101010102828c7c70101010182827c7c> PTRN} bind def
/Pattern28 {<1c1c121211112121c1c12121111112121c1c121211112121c1c1212111111212> PTRN} bind def
/Pattern29 {<3e3e414180808080e3e31414080808083e3e414180808080e3e3141408080808> PTRN} bind def
/Pattern30 {<4848888884848383848488884848383848488888848483838484888848483838> PTRN} bind def
/Pattern31 {<03030404080808080c0c12122121c0c003030404080808080c0c12122121c0c0> PTRN} bind def
/ellipsedict 8 dict def
ellipsedict /mtrx matrix put
/EARC {
 ellipsedict begin
  /endangle exch def
  /startangle exch def
  /yrad exch def
  /xrad exch def
  /y exch def
  /x exch def
  /savematrix mtrx currentmatrix def
  x y translate
  xrad yrad scale
  0 0 1 startangle endangle arc
  savematrix setmatrix
 end
} def
/TL {
  /kcomp exch def
  /linewidth exch def
  /offset exch def
  GS
  0 offset rmoveto
  linewidth SLW
  dup stringwidth exch kcomp add exch RL s
  GR
} def
/KINIT
{
 /kvector exch def
 /kid 0 def
} def
/KPROC
{
 pop pop
 kvector kid get
 0 rmoveto
 /kid 1 kid add def
} def
/DefEncoding [
 /.notdef
 /.notdef
 /.notdef
 /.notdef
 /.notdef
 /.notdef
 /.notdef
 /.notdef
 /.notdef
 /.notdef
 /.notdef
 /.notdef
 /.notdef
 /.notdef
 /.notdef
 /.notdef
 /.notdef
 /.notdef
 /.notdef
 /.notdef
 /.notdef
 /.notdef
 /.notdef
 /.notdef
 /.notdef
 /.notdef
 /.notdef
 /.notdef
 /.notdef
 /.notdef
 /.notdef
 /.notdef
 /space
 /exclam
 /quotedbl
 /numbersign
 /dollar
 /percent
 /ampersand
 /quoteright
 /parenleft
 /parenright
 /asterisk
 /plus
 /comma
 /hyphen
 /period
 /slash
 /zero
 /one
 /two
 /three
 /four
 /five
 /six
 /seven
 /eight
 /nine
 /colon
 /semicolon
 /less
 /equal
 /greater
 /question
 /at
 /A
 /B
 /C
 /D
 /E
 /F
 /G
 /H
 /I
 /J
 /K
 /L
 /M
 /N
 /O
 /P
 /Q
 /R
 /S
 /T
 /U
 /V
 /W
 /X
 /Y
 /Z
 /bracketleft
 /backslash
 /bracketright
 /asciicircum
 /underscore
 /grave
 /a
 /b
 /c
 /d
 /e
 /f
 /g
 /h
 /i
 /j
 /k
 /l
 /m
 /n
 /o
 /p
 /q
 /r
 /s
 /t
 /u
 /v
 /w
 /x
 /y
 /z
 /braceleft
 /bar
 /braceright
 /asciitilde
 /.notdef
 /.notdef
 /.notdef
 /.notdef
 /.notdef
 /.notdef
 /.notdef
 /.notdef
 /.notdef
 /.notdef
 /.notdef
 /.notdef
 /.notdef
 /.notdef
 /.notdef
 /.notdef
 /.notdef
 /.notdef
 /.notdef
 /.notdef
 /.notdef
 /.notdef
 /.notdef
 /.notdef
 /.notdef
 /.notdef
 /.notdef
 /.notdef
 /.notdef
 /.notdef
 /.notdef
 /.notdef
 /.notdef
 /space
 /exclamdown
 /cent
 /sterling
 /currency
 /yen
 /brokenbar
 /section
 /dieresis
 /copyright
 /ordfeminine
 /guillemotleft
 /logicalnot
 /hyphen
 /registered
 /macron
 /degree
 /plusminus
 /twosuperior
 /threesuperior
 /acute
 /mu
 /paragraph
 /periodcentered
 /cedilla
 /onesuperior
 /ordmasculine
 /guillemotright
 /onequarter
 /onehalf
 /threequarters
 /questiondown
 /Agrave
 /Aacute
 /Acircumflex
 /Atilde
 /Adieresis
 /Aring
 /AE
 /Ccedilla
 /Egrave
 /Eacute
 /Ecircumflex
 /Edieresis
 /Igrave
 /Iacute
 /Icircumflex
 /Idieresis
 /Eth
 /Ntilde
 /Ograve
 /Oacute
 /Ocircumflex
 /Otilde
 /Odieresis
 /multiply
 /Oslash
 /Ugrave
 /Uacute
 /Ucircumflex
 /Udieresis
 /Yacute
 /Thorn
 /germandbls
 /agrave
 /aacute
 /acircumflex
 /atilde
 /adieresis
 /aring
 /ae
 /ccedilla
 /egrave
 /eacute
 /ecircumflex
 /edieresis
 /igrave
 /iacute
 /icircumflex
 /idieresis
 /eth
 /ntilde
 /ograve
 /oacute
 /ocircumflex
 /otilde
 /odieresis
 /divide
 /oslash
 /ugrave
 /uacute
 /ucircumflex
 /udieresis
 /yacute
 /thorn
 /ydieresis
] def
%%EndProlog
%%BeginSetup
%%EndSetup
%%Page: 1 1
PAGE_OFFSET_X PAGE_OFFSET_Y translate
612.00 612.00 scale
90 rotate
0.0 -1.0 translate
n
0.0000 0.0000 m
0.0000 1.0000 l
1.2941 1.0000 l
1.2941 0.0000 l
c
[/DeviceRGB] SCS
Color0 SC
fill
[/DeviceRGB] SCS
Color1 SC
[] 0 SD
0.0015 SLW
0 SLC
0 SLJ
n
0.1499 0.4996 m
0.1500 0.4986 l
0.1503 0.4960 l
0.1505 0.4935 l
0.1508 0.4910 l
0.1511 0.4887 l
0.1513 0.4865 l
0.1516 0.4845 l
0.1519 0.4827 l
0.1522 0.4811 l
0.1524 0.4798 l
0.1527 0.4788 l
0.1530 0.4781 l
0.1532 0.4777 l
0.1535 0.4776 l
0.1538 0.4778 l
0.1540 0.4783 l
0.1543 0.4791 l
0.1546 0.4802 l
0.1548 0.4816 l
0.1551 0.4832 l
0.1554 0.4851 l
0.1557 0.4871 l
0.1559 0.4893 l
0.1562 0.4917 l
0.1565 0.4941 l
0.1567 0.4967 l
0.1570 0.4992 l
0.1573 0.5018 l
0.1575 0.5043 l
0.1578 0.5067 l
0.1581 0.5090 l
0.1583 0.5112 l
0.1586 0.5131 l
0.1589 0.5149 l
0.1592 0.5164 l
0.1594 0.5177 l
0.1597 0.5187 l
0.1600 0.5194 l
0.1602 0.5199 l
0.1605 0.5200 l
0.1608 0.5198 l
0.1610 0.5193 l
0.1613 0.5185 l
0.1616 0.5174 l
0.1618 0.5161 l
0.1621 0.5145 l
0.1624 0.5127 l
0.1627 0.5107 l
0.1629 0.5085 l
0.1632 0.5062 l
0.1635 0.5038 l
0.1637 0.5014 l
0.1640 0.4989 l
0.1643 0.4964 l
0.1645 0.4940 l
0.1648 0.4917 l
0.1651 0.4895 l
0.1653 0.4874 l
0.1656 0.4855 l
0.1659 0.4839 l
0.1662 0.4824 l
0.1664 0.4813 l
0.1667 0.4804 l
0.1670 0.4798 l
0.1672 0.4795 l
0.1675 0.4795 l
0.1678 0.4798 l
0.1680 0.4804 l
0.1683 0.4813 l
0.1686 0.4825 l
0.1689 0.4839 l
0.1691 0.4856 l
0.1694 0.4875 l
0.1697 0.4896 l
0.1699 0.4918 l
0.1702 0.4942 l
0.1705 0.4966 l
0.1707 0.4991 l
0.1710 0.5016 l
0.1713 0.5041 l
0.1715 0.5065 l
0.1718 0.5088 l
0.1721 0.5110 l
0.1724 0.5131 l
0.1726 0.5149 l
0.1729 0.5165 l
0.1732 0.5179 l
0.1734 0.5190 l
0.1737 0.5198 l
0.1740 0.5204 l
0.1742 0.5206 l
0.1745 0.5205 l
0.1748 0.5201 l
0.1750 0.5195 l
0.1753 0.5185 l
0.1756 0.5173 l
0.1759 0.5158 l
0.1761 0.5141 l
0.1764 0.5122 l
0.1767 0.5102 l
0.1769 0.5080 l
0.1772 0.5056 l
0.1775 0.5033 l
0.1777 0.5009 l
0.1780 0.4984 l
0.1783 0.4961 l
0.1785 0.4938 l
0.1788 0.4916 l
0.1791 0.4896 l
0.1794 0.4878 l
0.1796 0.4861 l
0.1799 0.4847 l
0.1802 0.4836 l
0.1804 0.4827 l
0.1807 0.4821 l
0.1810 0.4818 l
0.1812 0.4818 l
0.1815 0.4821 l
0.1818 0.4827 l
0.1820 0.4836 l
0.1823 0.4847 l
0.1826 0.4861 l
0.1829 0.4878 l
0.1831 0.4896 l
0.1834 0.4916 l
0.1837 0.4938 l
0.1839 0.4961 l
0.1842 0.4984 l
0.1845 0.5008 l
0.1847 0.5032 l
0.1850 0.5056 l
0.1853 0.5079 l
0.1855 0.5101 l
0.1858 0.5121 l
0.1861 0.5140 l
0.1864 0.5157 l
0.1866 0.5171 l
0.1869 0.5183 l
0.1872 0.5193 l
0.1874 0.5199 l
0.1877 0.5203 l
0.1880 0.5204 l
0.1882 0.5201 l
0.1885 0.5196 l
0.1888 0.5188 l
0.1890 0.5178 l
0.1893 0.5164 l
0.1896 0.5149 l
0.1899 0.5131 l
0.1901 0.5112 l
0.1904 0.5091 l
0.1907 0.5069 l
0.1909 0.5047 l
0.1912 0.5024 l
0.1915 0.5001 l
0.1917 0.4978 l
0.1920 0.4956 l
0.1923 0.4935 l
0.1925 0.4915 l
0.1928 0.4897 l
0.1931 0.4881 l
0.1934 0.4867 l
0.1936 0.4856 l
0.1939 0.4847 l
0.1942 0.4842 l
0.1944 0.4839 l
0.1947 0.4839 l
0.1950 0.4841 l
0.1952 0.4847 l
0.1955 0.4856 l
0.1958 0.4867 l
0.1961 0.4881 l
0.1963 0.4896 l
0.1966 0.4914 l
0.1969 0.4934 l
0.1971 0.4955 l
0.1974 0.4977 l
0.1977 0.5000 l
0.1979 0.5023 l
0.1982 0.5046 l
0.1985 0.5069 l
0.1987 0.5090 l
0.1990 0.5111 l
0.1993 0.5131 l
0.1996 0.5148 l
0.1998 0.5164 l
0.2001 0.5177 l
0.2004 0.5188 l
0.2006 0.5196 l
0.2009 0.5202 l
0.2012 0.5204 l
0.2014 0.5204 l
0.2017 0.5201 l
0.2020 0.5195 l
0.2022 0.5186 l
0.2025 0.5175 l
0.2028 0.5161 l
0.2031 0.5145 l
0.2033 0.5128 l
0.2036 0.5108 l
0.2039 0.5088 l
0.2041 0.5067 l
0.2044 0.5045 l
0.2047 0.5022 l
0.2049 0.5000 l
0.2052 0.4979 l
0.2055 0.4958 l
0.2057 0.4939 l
0.2060 0.4921 l
0.2063 0.4905 l
0.2066 0.4891 l
0.2068 0.4879 l
0.2071 0.4870 l
0.2074 0.4864 l
0.2076 0.4860 l
0.2079 0.4859 l
0.2082 0.4861 l
0.2084 0.4865 l
0.2087 0.4873 l
0.2090 0.4882 l
0.2092 0.4895 l
0.2095 0.4909 l
0.2098 0.4926 l
0.2101 0.4944 l
0.2103 0.4963 l
0.2106 0.4983 l
0.2109 0.5005 l
0.2111 0.5026 l
0.2114 0.5047 l
0.2117 0.5069 l
0.2119 0.5089 l
0.2122 0.5108 l
0.2125 0.5126 l
0.2127 0.5142 l
0.2130 0.5156 l
0.2133 0.5168 l
0.2136 0.5178 l
0.2138 0.5185 l
0.2141 0.5189 l
0.2144 0.5191 l
0.2146 0.5190 l
0.2149 0.5186 l
0.2152 0.5179 l
0.2154 0.5170 l
0.2157 0.5159 l
0.2160 0.5146 l
0.2162 0.5130 l
0.2165 0.5113 l
0.2168 0.5095 l
0.2171 0.5075 l
0.2173 0.5055 l
0.2176 0.5035 l
0.2179 0.5014 l
0.2181 0.4994 l
0.2184 0.4975 l
0.2187 0.4956 l
0.2189 0.4939 l
0.2192 0.4924 l
0.2195 0.4910 l
0.2197 0.4899 l
0.2200 0.4890 l
0.2203 0.4884 l
0.2206 0.4880 l
0.2208 0.4879 l
0.2211 0.4881 l
0.2214 0.4885 l
0.2216 0.4892 l
0.2219 0.4901 l
0.2222 0.4913 l
0.2224 0.4927 l
0.2227 0.4943 l
0.2230 0.4960 l
0.2233 0.4979 l
0.2235 0.4998 l
0.2238 0.5019 l
0.2241 0.5039 l
0.2243 0.5060 l
0.2246 0.5080 l
0.2249 0.5099 l
0.2251 0.5118 l
0.2254 0.5135 l
0.2257 0.5150 l
0.2259 0.5163 l
0.2262 0.5175 l
0.2265 0.5184 l
0.2268 0.5190 l
0.2270 0.5194 l
0.2273 0.5195 l
0.2276 0.5193 l
0.2278 0.5189 l
0.2281 0.5183 l
0.2284 0.5174 l
0.2286 0.5162 l
0.2289 0.5149 l
0.2292 0.5134 l
0.2294 0.5117 l
0.2297 0.5100 l
0.2300 0.5081 l
0.2303 0.5062 l
0.2305 0.5042 l
0.2308 0.5023 l
0.2311 0.5004 l
0.2313 0.4986 l
0.2316 0.4970 l
0.2319 0.4954 l
0.2321 0.4941 l
0.2324 0.4929 l
0.2327 0.4920 l
0.2329 0.4913 l
0.2332 0.4908 l
0.2335 0.4906 l
0.2338 0.4907 l
0.2340 0.4910 l
0.2343 0.4915 l
0.2346 0.4923 l
0.2348 0.4934 l
0.2351 0.4946 l
0.2354 0.4960 l
0.2356 0.4976 l
0.2359 0.4993 l
0.2362 0.5011 l
0.2364 0.5030 l
0.2367 0.5049 l
0.2370 0.5067 l
0.2373 0.5086 l
0.2375 0.5104 l
0.2378 0.5121 l
0.2381 0.5136 l
0.2383 0.5150 l
0.2386 0.5163 l
0.2389 0.5173 l
0.2391 0.5180 l
0.2394 0.5186 l
0.2397 0.5189 l
0.2399 0.5189 l
0.2402 0.5187 l
0.2405 0.5183 l
0.2408 0.5176 l
0.2410 0.5167 l
0.2413 0.5156 l
0.2416 0.5143 l
0.2418 0.5129 l
0.2421 0.5113 l
0.2424 0.5096 l
0.2426 0.5078 l
0.2429 0.5061 l
0.2432 0.5043 l
0.2434 0.5025 l
0.2437 0.5008 l
0.2440 0.4992 l
0.2443 0.4978 l
0.2445 0.4964 l
0.2448 0.4953 l
0.2451 0.4944 l
0.2453 0.4936 l
0.2456 0.4932 l
0.2459 0.4929 l
0.2461 0.4929 l
0.2464 0.4931 l
0.2467 0.4936 l
0.2469 0.4943 l
0.2472 0.4952 l
0.2475 0.4963 l
0.2478 0.4976 l
0.2480 0.4991 l
0.2483 0.5007 l
0.2486 0.5023 l
0.2488 0.5041 l
0.2491 0.5058 l
0.2494 0.5076 l
0.2496 0.5093 l
0.2499 0.5110 l
0.2502 0.5126 l
0.2505 0.5140 l
0.2507 0.5153 l
0.2510 0.5164 l
0.2513 0.5173 l
0.2515 0.5180 l
0.2518 0.5185 l
0.2521 0.5188 l
0.2523 0.5188 l
0.2526 0.5185 l
0.2529 0.5181 l
0.2531 0.5174 l
0.2534 0.5165 l
0.2537 0.5155 l
0.2540 0.5143 l
0.2542 0.5129 l
0.2545 0.5114 l
0.2548 0.5098 l
0.2550 0.5082 l
0.2553 0.5066 l
0.2556 0.5050 l
0.2558 0.5034 l
0.2561 0.5019 l
0.2564 0.5005 l
0.2566 0.4993 l
0.2569 0.4982 l
0.2572 0.4972 l
0.2575 0.4965 l
0.2577 0.4960 l
0.2580 0.4957 l
0.2583 0.4956 l
0.2585 0.4958 l
0.2588 0.4962 l
0.2591 0.4968 l
0.2593 0.4976 l
0.2596 0.4986 l
0.2599 0.4998 l
0.2601 0.5011 l
0.2604 0.5025 l
0.2607 0.5041 l
0.2610 0.5056 l
0.2612 0.5073 l
0.2615 0.5089 l
0.2618 0.5105 l
0.2620 0.5120 l
0.2623 0.5134 l
0.2626 0.5147 l
0.2628 0.5159 l
0.2631 0.5169 l
0.2634 0.5177 l
0.2636 0.5183 l
0.2639 0.5187 l
0.2642 0.5189 l
0.2645 0.5189 l
0.2647 0.5186 l
0.2650 0.5182 l
0.2653 0.5175 l
0.2655 0.5167 l
0.2658 0.5157 l
0.2661 0.5145 l
0.2663 0.5132 l
0.2666 0.5118 l
0.2669 0.5104 l
0.2671 0.5089 l
0.2674 0.5075 l
0.2677 0.5060 l
0.2680 0.5046 l
0.2682 0.5033 l
0.2685 0.5021 l
0.2688 0.5011 l
0.2690 0.5002 l
0.2693 0.4994 l
0.2696 0.4989 l
0.2698 0.4986 l
0.2701 0.4985 l
0.2704 0.4986 l
0.2706 0.4989 l
0.2709 0.4994 l
0.2712 0.5000 l
0.2715 0.5009 l
0.2717 0.5019 l
0.2720 0.5031 l
0.2723 0.5044 l
0.2725 0.5057 l
0.2728 0.5071 l
0.2731 0.5086 l
0.2733 0.5100 l
0.2736 0.5114 l
0.2739 0.5128 l
0.2741 0.5140 l
0.2744 0.5152 l
0.2747 0.5162 l
0.2750 0.5171 l
0.2752 0.5178 l
0.2755 0.5183 l
0.2758 0.5186 l
0.2760 0.5187 l
0.2763 0.5187 l
0.2766 0.5184 l
0.2768 0.5179 l
0.2771 0.5173 l
0.2774 0.5165 l
0.2777 0.5155 l
0.2779 0.5145 l
0.2782 0.5133 l
0.2785 0.5121 l
0.2787 0.5108 l
0.2790 0.5095 l
0.2793 0.5083 l
0.2795 0.5070 l
0.2798 0.5059 l
0.2801 0.5048 l
0.2803 0.5039 l
0.2806 0.5030 l
0.2809 0.5024 l
0.2812 0.5019 l
0.2814 0.5016 l
0.2817 0.5015 l
0.2820 0.5015 l
0.2822 0.5018 l
0.2825 0.5022 l
0.2828 0.5028 l
0.2830 0.5036 l
0.2833 0.5045 l
0.2836 0.5055 l
0.2838 0.5066 l
0.2841 0.5078 l
0.2844 0.5090 l
0.2847 0.5103 l
0.2849 0.5115 l
0.2852 0.5128 l
0.2855 0.5139 l
0.2857 0.5150 l
0.2860 0.5160 l
0.2863 0.5168 l
0.2865 0.5175 l
0.2868 0.5181 l
0.2871 0.5184 l
0.2873 0.5186 l
0.2876 0.5187 l
0.2879 0.5185 l
0.2882 0.5182 l
0.2884 0.5177 l
0.2887 0.5171 l
0.2890 0.5163 l
0.2892 0.5155 l
0.2895 0.5145 l
0.2898 0.5135 l
0.2900 0.5124 l
0.2903 0.5113 l
0.2906 0.5102 l
0.2908 0.5092 l
0.2911 0.5082 l
0.2914 0.5073 l
0.2917 0.5065 l
0.2919 0.5058 l
0.2922 0.5052 l
0.2925 0.5048 l
0.2927 0.5046 l
0.2930 0.5045 l
0.2933 0.5046 l
0.2935 0.5048 l
0.2938 0.5052 l
0.2941 0.5058 l
0.2943 0.5065 l
0.2946 0.5073 l
0.2949 0.5082 l
0.2952 0.5092 l
0.2954 0.5102 l
0.2957 0.5113 l
0.2960 0.5124 l
0.2962 0.5135 l
0.2965 0.5145 l
0.2968 0.5155 l
0.2970 0.5164 l
0.2973 0.5172 l
0.2976 0.5179 l
0.2978 0.5185 l
0.2981 0.5189 l
0.2984 0.5191 l
0.2987 0.5192 l
0.2989 0.5192 l
0.2992 0.5190 l
0.2995 0.5187 l
0.2997 0.5182 l
0.3000 0.5176 l
0.3003 0.5169 l
0.3005 0.5162 l
0.3008 0.5153 l
0.3011 0.5145 l
0.3013 0.5136 l
0.3016 0.5127 l
0.3019 0.5118 l
0.3022 0.5110 l
0.3024 0.5103 l
0.3027 0.5096 l
0.3030 0.5091 l
0.3032 0.5087 l
0.3035 0.5083 l
0.3038 0.5082 l
0.3040 0.5081 l
0.3043 0.5082 l
0.3046 0.5085 l
0.3049 0.5088 l
0.3051 0.5093 l
0.3054 0.5099 l
0.3057 0.5106 l
0.3059 0.5113 l
0.3062 0.5122 l
0.3065 0.5130 l
0.3067 0.5139 l
0.3070 0.5148 l
0.3073 0.5156 l
0.3075 0.5164 l
0.3078 0.5172 l
0.3081 0.5179 l
0.3084 0.5184 l
0.3086 0.5189 l
0.3089 0.5193 l
0.3092 0.5195 l
0.3094 0.5196 l
0.3097 0.5196 l
0.3100 0.5195 l
0.3102 0.5193 l
0.3105 0.5189 l
0.3108 0.5185 l
0.3110 0.5180 l
0.3113 0.5174 l
0.3116 0.5168 l
0.3119 0.5161 l
0.3121 0.5155 l
0.3124 0.5148 l
0.3127 0.5142 l
0.3129 0.5136 l
0.3132 0.5131 l
0.3135 0.5126 l
0.3137 0.5123 l
0.3140 0.5120 l
0.3143 0.5118 l
0.3145 0.5118 l
0.3148 0.5118 l
0.3151 0.5120 l
0.3154 0.5122 l
0.3156 0.5126 l
0.3159 0.5130 l
0.3162 0.5136 l
0.3164 0.5141 l
0.3167 0.5148 l
0.3170 0.5154 l
0.3172 0.5161 l
0.3175 0.5168 l
0.3178 0.5175 l
0.3180 0.5181 l
0.3183 0.5187 l
0.3186 0.5193 l
0.3189 0.5197 l
0.3191 0.5201 l
0.3194 0.5204 l
0.3197 0.5206 l
0.3199 0.5207 l
0.3202 0.5207 l
0.3205 0.5206 l
0.3207 0.5205 l
0.3210 0.5202 l
0.3213 0.5199 l
0.3215 0.5195 l
0.3218 0.5191 l
0.3221 0.5187 l
0.3224 0.5182 l
0.3226 0.5177 l
0.3229 0.5173 l
0.3232 0.5168 l
0.3234 0.5164 l
0.3237 0.5161 l
0.3240 0.5158 l
0.3242 0.5155 l
0.3245 0.5154 l
0.3248 0.5153 l
0.3250 0.5153 l
0.3253 0.5153 l
0.3256 0.5155 l
0.3259 0.5157 l
0.3261 0.5160 l
0.3264 0.5163 l
0.3267 0.5167 l
0.3269 0.5172 l
0.3272 0.5176 l
0.3275 0.5181 l
0.3277 0.5186 l
0.3280 0.5190 l
0.3283 0.5195 l
0.3285 0.5199 l
0.3288 0.5203 l
0.3291 0.5207 l
0.3294 0.5210 l
0.3296 0.5212 l
0.3299 0.5214 l
0.3302 0.5215 l
0.3304 0.5215 l
0.3307 0.5215 l
0.3310 0.5215 l
0.3312 0.5214 l
0.3315 0.5212 l
0.3318 0.5210 l
0.3321 0.5208 l
0.3323 0.5206 l
0.3326 0.5204 l
0.3329 0.5201 l
0.3331 0.5199 l
0.3334 0.5197 l
0.3337 0.5196 l
0.3339 0.5194 l
0.3342 0.5193 l
0.3345 0.5193 l
0.3347 0.5193 l
0.3350 0.5194 l
0.3353 0.5195 l
0.3356 0.5196 l
0.3358 0.5198 l
0.3361 0.5201 l
0.3364 0.5204 l
0.3366 0.5207 l
0.3369 0.5210 l
0.3372 0.5214 l
0.3374 0.5218 l
0.3377 0.5221 l
0.3380 0.5225 l
0.3382 0.5229 l
0.3385 0.5232 l
0.3388 0.5235 l
0.3391 0.5238 l
0.3393 0.5241 l
0.3396 0.5243 l
0.3399 0.5245 l
0.3401 0.5247 l
0.3404 0.5248 l
0.3407 0.5249 l
0.3409 0.5249 l
0.3412 0.5249 l
0.3415 0.5249 l
0.3417 0.5249 l
0.3420 0.5249 l
0.3423 0.5249 l
0.3426 0.5248 l
0.3428 0.5248 l
0.3431 0.5248 l
0.3434 0.5247 l
0.3436 0.5248 l
0.3439 0.5248 l
0.3442 0.5249 l
0.3444 0.5249 l
0.3447 0.5251 l
0.3450 0.5252 l
0.3452 0.5254 l
0.3455 0.5256 l
0.3458 0.5258 l
0.3461 0.5261 l
0.3463 0.5263 l
0.3466 0.5266 l
0.3469 0.5269 l
0.3471 0.5272 l
0.3474 0.5275 l
0.3477 0.5278 l
0.3479 0.5281 l
0.3482 0.5284 l
0.3485 0.5287 l
0.3487 0.5289 l
0.3490 0.5291 l
0.3493 0.5293 l
0.3496 0.5295 l
0.3498 0.5297 l
0.3501 0.5298 l
0.3504 0.5299 l
0.3506 0.5300 l
0.3509 0.5301 l
0.3512 0.5302 l
0.3514 0.5302 l
0.3517 0.5303 l
0.3520 0.5303 l
0.3522 0.5304 l
0.3525 0.5304 l
0.3528 0.5305 l
0.3531 0.5305 l
0.3533 0.5306 l
0.3536 0.5307 l
0.3539 0.5308 l
0.3541 0.5309 l
0.3544 0.5310 l
0.3547 0.5312 l
0.3549 0.5314 l
0.3552 0.5316 l
0.3555 0.5318 l
0.3557 0.5320 l
0.3560 0.5322 l
0.3563 0.5325 l
0.3566 0.5327 l
0.3568 0.5330 l
0.3571 0.5333 l
0.3574 0.5335 l
0.3576 0.5338 l
0.3579 0.5341 l
0.3582 0.5343 l
0.3584 0.5346 l
0.3587 0.5349 l
0.3590 0.5351 l
0.3593 0.5354 l
0.3595 0.5356 l
0.3598 0.5359 l
0.3601 0.5361 l
0.3603 0.5363 l
0.3606 0.5366 l
0.3609 0.5368 l
0.3611 0.5371 l
0.3614 0.5374 l
0.3617 0.5376 l
0.3619 0.5379 l
0.3622 0.5382 l
0.3625 0.5385 l
0.3628 0.5388 l
0.3630 0.5391 l
0.3633 0.5395 l
0.3636 0.5398 l
0.3638 0.5402 l
0.3641 0.5406 l
0.3644 0.5409 l
0.3646 0.5413 l
0.3649 0.5417 l
0.3652 0.5421 l
0.3654 0.5425 l
0.3657 0.5429 l
0.3660 0.5433 l
0.3663 0.5437 l
0.3665 0.5440 l
0.3668 0.5444 l
0.3671 0.5447 l
0.3673 0.5450 l
0.3676 0.5453 l
0.3679 0.5455 l
0.3681 0.5457 l
0.3684 0.5459 l
0.3687 0.5461 l
0.3689 0.5463 l
0.3692 0.5464 l
0.3695 0.5465 l
0.3698 0.5466 l
0.3700 0.5467 l
0.3703 0.5467 l
0.3706 0.5468 l
0.3708 0.5468 l
0.3711 0.5469 l
0.3714 0.5470 l
0.3716 0.5471 l
0.3719 0.5472 l
0.3722 0.5474 l
0.3724 0.5476 l
0.3727 0.5478 l
0.3730 0.5481 l
0.3733 0.5484 l
0.3735 0.5488 l
0.3738 0.5493 l
0.3741 0.5498 l
0.3743 0.5503 l
0.3746 0.5510 l
0.3749 0.5517 l
0.3751 0.5524 l
0.3754 0.5533 l
0.3757 0.5541 l
0.3759 0.5550 l
0.3762 0.5560 l
0.3765 0.5569 l
0.3768 0.5579 l
0.3770 0.5589 l
0.3773 0.5599 l
0.3776 0.5608 l
0.3778 0.5617 l
0.3781 0.5625 l
0.3784 0.5633 l
0.3786 0.5640 l
0.3789 0.5646 l
0.3792 0.5651 l
0.3794 0.5655 l
0.3797 0.5657 l
0.3800 0.5658 l
0.3803 0.5657 l
0.3805 0.5654 l
0.3808 0.5650 l
0.3811 0.5644 l
0.3813 0.5637 l
0.3816 0.5627 l
0.3819 0.5616 l
0.3821 0.5604 l
0.3824 0.5590 l
0.3827 0.5574 l
0.3829 0.5558 l
0.3832 0.5540 l
0.3835 0.5522 l
0.3838 0.5503 l
0.3840 0.5484 l
0.3843 0.5464 l
0.3846 0.5445 l
0.3848 0.5427 l
0.3851 0.5409 l
0.3854 0.5392 l
0.3856 0.5376 l
0.3859 0.5362 l
0.3862 0.5350 l
0.3865 0.5340 l
0.3867 0.5332 l
0.3870 0.5327 l
0.3873 0.5324 l
0.3875 0.5323 l
0.3878 0.5325 l
0.3881 0.5331 l
0.3883 0.5338 l
0.3886 0.5349 l
0.3889 0.5361 l
0.3891 0.5377 l
0.3894 0.5394 l
0.3897 0.5414 l
0.3900 0.5435 l
0.3902 0.5458 l
0.3905 0.5482 l
0.3908 0.5507 l
0.3910 0.5532 l
0.3913 0.5558 l
0.3916 0.5583 l
0.3918 0.5607 l
0.3921 0.5631 l
0.3924 0.5653 l
0.3926 0.5673 l
0.3929 0.5692 l
0.3932 0.5707 l
0.3935 0.5720 l
0.3937 0.5730 l
0.3940 0.5737 l
0.3943 0.5741 l
0.3945 0.5740 l
0.3948 0.5736 l
0.3951 0.5729 l
0.3953 0.5717 l
0.3956 0.5702 l
0.3959 0.5683 l
0.3961 0.5661 l
0.3964 0.5635 l
0.3967 0.5605 l
0.3970 0.5573 l
0.3972 0.5538 l
0.3975 0.5501 l
0.3978 0.5462 l
0.3980 0.5421 l
0.3983 0.5379 l
0.3986 0.5336 l
0.3988 0.5292 l
0.3991 0.5249 l
0.3994 0.5206 l
0.3996 0.5163 l
0.3999 0.5122 l
0.4002 0.5083 l
0.4005 0.5046 l
0.4007 0.5011 l
0.4010 0.4979 l
0.4013 0.4950 l
0.4015 0.4924 l
0.4018 0.4902 l
0.4021 0.4884 l
0.4023 0.4870 l
0.4026 0.4861 l
0.4029 0.4855 l
0.4031 0.4855 l
0.4034 0.4858 l
0.4037 0.4867 l
0.4040 0.4879 l
0.4042 0.4896 l
0.4045 0.4917 l
0.4048 0.4941 l
0.4050 0.4970 l
0.4053 0.5002 l
0.4056 0.5037 l
0.4058 0.5074 l
0.4061 0.5114 l
0.4064 0.5156 l
0.4066 0.5200 l
0.4069 0.5244 l
0.4072 0.5289 l
0.4075 0.5335 l
0.4077 0.5380 l
0.4080 0.5424 l
0.4083 0.5468 l
0.4085 0.5509 l
0.4088 0.5549 l
0.4091 0.5586 l
0.4093 0.5620 l
0.4096 0.5651 l
0.4099 0.5679 l
0.4101 0.5703 l
0.4104 0.5722 l
0.4107 0.5738 l
0.4110 0.5749 l
0.4112 0.5756 l
0.4115 0.5758 l
0.4118 0.5756 l
0.4120 0.5749 l
0.4123 0.5738 l
0.4126 0.5723 l
0.4128 0.5703 l
0.4131 0.5679 l
0.4134 0.5652 l
0.4137 0.5621 l
0.4139 0.5587 l
0.4142 0.5551 l
0.4145 0.5511 l
0.4147 0.5470 l
0.4150 0.5427 l
0.4153 0.5382 l
0.4155 0.5336 l
0.4158 0.5289 l
0.4161 0.5242 l
0.4163 0.5195 l
0.4166 0.5148 l
0.4169 0.5102 l
0.4172 0.5057 l
0.4174 0.5013 l
0.4177 0.4970 l
0.4180 0.4929 l
0.4182 0.4890 l
0.4185 0.4853 l
0.4188 0.4818 l
0.4190 0.4785 l
0.4193 0.4755 l
0.4196 0.4727 l
0.4198 0.4702 l
0.4201 0.4680 l
0.4204 0.4660 l
0.4207 0.4643 l
0.4209 0.4629 l
0.4212 0.4618 l
0.4215 0.4610 l
0.4217 0.4605 l
0.4220 0.4603 l
0.4223 0.4604 l
0.4225 0.4607 l
0.4228 0.4614 l
0.4231 0.4623 l
0.4233 0.4636 l
0.4236 0.4651 l
0.4239 0.4669 l
0.4242 0.4690 l
0.4244 0.4714 l
0.4247 0.4740 l
0.4250 0.4770 l
0.4252 0.4801 l
0.4255 0.4835 l
0.4258 0.4872 l
0.4260 0.4910 l
0.4263 0.4951 l
0.4266 0.4993 l
0.4268 0.5037 l
0.4271 0.5082 l
0.4274 0.5128 l
0.4277 0.5175 l
0.4279 0.5223 l
0.4282 0.5270 l
0.4285 0.5317 l
0.4287 0.5364 l
0.4290 0.5410 l
0.4293 0.5454 l
0.4295 0.5497 l
0.4298 0.5537 l
0.4301 0.5576 l
0.4303 0.5611 l
0.4306 0.5643 l
0.4309 0.5673 l
0.4312 0.5698 l
0.4314 0.5720 l
0.4317 0.5737 l
0.4320 0.5750 l
0.4322 0.5759 l
0.4325 0.5764 l
0.4328 0.5764 l
0.4330 0.5759 l
0.4333 0.5750 l
0.4336 0.5736 l
0.4338 0.5718 l
0.4341 0.5696 l
0.4344 0.5671 l
0.4347 0.5641 l
0.4349 0.5608 l
0.4352 0.5572 l
0.4355 0.5534 l
0.4357 0.5492 l
0.4360 0.5449 l
0.4363 0.5405 l
0.4365 0.5358 l
0.4368 0.5311 l
0.4371 0.5264 l
0.4373 0.5216 l
0.4376 0.5169 l
0.4379 0.5122 l
0.4382 0.5076 l
0.4384 0.5031 l
0.4387 0.4988 l
0.4390 0.4946 l
0.4392 0.4906 l
0.4395 0.4868 l
0.4398 0.4832 l
0.4400 0.4799 l
0.4403 0.4767 l
0.4406 0.4738 l
0.4409 0.4712 l
0.4411 0.4688 l
0.4414 0.4666 l
0.4417 0.4646 l
0.4419 0.4628 l
0.4422 0.4613 l
0.4425 0.4599 l
0.4427 0.4587 l
0.4430 0.4577 l
0.4433 0.4568 l
0.4435 0.4560 l
0.4438 0.4554 l
0.4441 0.4549 l
0.4444 0.4545 l
0.4446 0.4542 l
0.4449 0.4540 l
0.4452 0.4539 l
0.4454 0.4538 l
0.4457 0.4539 l
0.4460 0.4540 l
0.4462 0.4542 l
0.4465 0.4545 l
0.4468 0.4549 l
0.4470 0.4554 l
0.4473 0.4560 l
0.4476 0.4567 l
0.4479 0.4576 l
0.4481 0.4586 l
0.4484 0.4598 l
0.4487 0.4611 l
0.4489 0.4627 l
0.4492 0.4644 l
0.4495 0.4664 l
0.4497 0.4685 l
0.4500 0.4709 l
0.4503 0.4736 l
0.4505 0.4764 l
0.4508 0.4795 l
0.4511 0.4829 l
0.4514 0.4864 l
0.4516 0.4902 l
0.4519 0.4941 l
0.4522 0.4983 l
0.4524 0.5026 l
0.4527 0.5071 l
0.4530 0.5116 l
0.4532 0.5163 l
0.4535 0.5210 l
0.4538 0.5258 l
0.4540 0.5305 l
0.4543 0.5352 l
0.4546 0.5398 l
0.4549 0.5443 l
0.4551 0.5486 l
0.4554 0.5527 l
0.4557 0.5566 l
0.4559 0.5603 l
0.4562 0.5636 l
0.4565 0.5666 l
0.4567 0.5692 l
0.4570 0.5715 l
0.4573 0.5733 l
0.4575 0.5748 l
0.4578 0.5758 l
0.4581 0.5763 l
0.4584 0.5764 l
0.4586 0.5760 l
0.4589 0.5752 l
0.4592 0.5740 l
0.4594 0.5723 l
0.4597 0.5702 l
0.4600 0.5678 l
0.4602 0.5649 l
0.4605 0.5617 l
0.4608 0.5582 l
0.4610 0.5545 l
0.4613 0.5504 l
0.4616 0.5462 l
0.4619 0.5418 l
0.4621 0.5373 l
0.4624 0.5326 l
0.4627 0.5279 l
0.4629 0.5232 l
0.4632 0.5185 l
0.4635 0.5138 l
0.4637 0.5092 l
0.4640 0.5046 l
0.4643 0.5003 l
0.4645 0.4960 l
0.4648 0.4920 l
0.4651 0.4881 l
0.4654 0.4844 l
0.4656 0.4809 l
0.4659 0.4777 l
0.4662 0.4747 l
0.4664 0.4719 l
0.4667 0.4694 l
0.4670 0.4671 l
0.4672 0.4650 l
0.4675 0.4631 l
0.4678 0.4614 l
0.4681 0.4600 l
0.4683 0.4587 l
0.4686 0.4576 l
0.4689 0.4567 l
0.4691 0.4559 l
0.4694 0.4553 l
0.4697 0.4548 l
0.4699 0.4544 l
0.4702 0.4541 l
0.4705 0.4538 l
0.4707 0.4537 l
0.4710 0.4536 l
0.4713 0.4535 l
0.4716 0.4535 l
0.4718 0.4535 l
0.4721 0.4536 l
0.4724 0.4536 l
0.4726 0.4536 l
0.4729 0.4537 l
0.4732 0.4537 l
0.4734 0.4538 l
0.4737 0.4538 l
0.4740 0.4538 l
0.4742 0.4538 l
0.4745 0.4537 l
0.4748 0.4537 l
0.4751 0.4537 l
0.4753 0.4536 l
0.4756 0.4536 l
0.4759 0.4535 l
0.4761 0.4535 l
0.4764 0.4535 l
0.4767 0.4535 l
0.4769 0.4536 l
0.4772 0.4537 l
0.4775 0.4539 l
0.4777 0.4542 l
0.4780 0.4545 l
0.4783 0.4549 l
0.4786 0.4555 l
0.4788 0.4562 l
0.4791 0.4570 l
0.4794 0.4580 l
0.4796 0.4591 l
0.4799 0.4605 l
0.4802 0.4620 l
0.4804 0.4637 l
0.4807 0.4656 l
0.4810 0.4678 l
0.4812 0.4702 l
0.4815 0.4728 l
0.4818 0.4756 l
0.4821 0.4787 l
0.4823 0.4820 l
0.4826 0.4855 l
0.4829 0.4892 l
0.4831 0.4931 l
0.4834 0.4972 l
0.4837 0.5015 l
0.4839 0.5059 l
0.4842 0.5104 l
0.4845 0.5150 l
0.4847 0.5196 l
0.4850 0.5243 l
0.4853 0.5290 l
0.4856 0.5336 l
0.4858 0.5382 l
0.4861 0.5427 l
0.4864 0.5470 l
0.4866 0.5511 l
0.4869 0.5550 l
0.4872 0.5586 l
0.4874 0.5620 l
0.4877 0.5650 l
0.4880 0.5677 l
0.4882 0.5700 l
0.4885 0.5720 l
0.4888 0.5735 l
0.4891 0.5746 l
0.4893 0.5752 l
0.4896 0.5754 l
0.4899 0.5752 l
0.4901 0.5745 l
0.4904 0.5734 l
0.4907 0.5719 l
0.4909 0.5699 l
0.4912 0.5676 l
0.4915 0.5649 l
0.4917 0.5618 l
0.4920 0.5585 l
0.4923 0.5548 l
0.4926 0.5509 l
0.4928 0.5468 l
0.4931 0.5425 l
0.4934 0.5380 l
0.4936 0.5334 l
0.4939 0.5288 l
0.4942 0.5241 l
0.4944 0.5194 l
0.4947 0.5148 l
0.4950 0.5102 l
0.4953 0.5057 l
0.4955 0.5013 l
0.4958 0.4970 l
0.4961 0.4929 l
0.4963 0.4890 l
0.4966 0.4853 l
0.4969 0.4818 l
0.4971 0.4786 l
0.4974 0.4755 l
0.4977 0.4727 l
0.4979 0.4701 l
0.4982 0.4677 l
0.4985 0.4656 l
0.4988 0.4637 l
0.4990 0.4619 l
0.4993 0.4604 l
0.4996 0.4591 l
0.4998 0.4580 l
0.5001 0.4570 l
0.5004 0.4562 l
0.5006 0.4555 l
0.5009 0.4549 l
0.5012 0.4544 l
0.5014 0.4541 l
0.5017 0.4538 l
0.5020 0.4536 l
0.5023 0.4535 l
0.5025 0.4534 l
0.5028 0.4533 l
0.5031 0.4533 l
0.5033 0.4533 l
0.5036 0.4533 l
0.5039 0.4533 l
0.5041 0.4533 l
0.5044 0.4533 l
0.5047 0.4534 l
0.5049 0.4534 l
0.5052 0.4534 l
0.5055 0.4534 l
0.5058 0.4534 l
0.5060 0.4533 l
0.5063 0.4533 l
0.5066 0.4533 l
0.5068 0.4533 l
0.5071 0.4532 l
0.5074 0.4532 l
0.5076 0.4532 l
0.5079 0.4531 l
0.5082 0.4531 l
0.5084 0.4531 l
0.5087 0.4531 l
0.5090 0.4530 l
0.5093 0.4530 l
0.5095 0.4530 l
0.5098 0.4531 l
0.5101 0.4531 l
0.5103 0.4531 l
0.5106 0.4531 l
0.5109 0.4531 l
0.5111 0.4532 l
0.5114 0.4532 l
0.5117 0.4532 l
0.5119 0.4533 l
0.5122 0.4533 l
0.5125 0.4533 l
0.5128 0.4534 l
0.5130 0.4534 l
0.5133 0.4534 l
0.5136 0.4534 l
0.5138 0.4534 l
0.5141 0.4533 l
0.5144 0.4533 l
0.5146 0.4533 l
0.5149 0.4533 l
0.5152 0.4533 l
0.5154 0.4533 l
0.5157 0.4533 l
0.5160 0.4533 l
0.5163 0.4534 l
0.5165 0.4535 l
0.5168 0.4537 l
0.5171 0.4539 l
0.5173 0.4542 l
0.5176 0.4547 l
0.5179 0.4552 l
0.5181 0.4558 l
0.5184 0.4565 l
0.5187 0.4574 l
0.5189 0.4585 l
0.5192 0.4597 l
0.5195 0.4611 l
0.5198 0.4627 l
0.5200 0.4645 l
0.5203 0.4665 l
0.5206 0.4687 l
0.5208 0.4712 l
0.5211 0.4739 l
0.5214 0.4768 l
0.5216 0.4799 l
0.5219 0.4833 l
0.5222 0.4868 l
0.5225 0.4906 l
0.5227 0.4945 l
0.5230 0.4987 l
0.5233 0.5029 l
0.5235 0.5073 l
0.5238 0.5118 l
0.5241 0.5164 l
0.5243 0.5210 l
0.5246 0.5256 l
0.5249 0.5302 l
0.5251 0.5348 l
0.5254 0.5392 l
0.5257 0.5436 l
0.5260 0.5477 l
0.5262 0.5517 l
0.5265 0.5555 l
0.5268 0.5589 l
0.5270 0.5621 l
0.5273 0.5650 l
0.5276 0.5675 l
0.5278 0.5696 l
0.5281 0.5714 l
0.5284 0.5727 l
0.5286 0.5736 l
0.5289 0.5741 l
0.5292 0.5742 l
0.5295 0.5738 l
0.5297 0.5729 l
0.5300 0.5717 l
0.5303 0.5700 l
0.5305 0.5680 l
0.5308 0.5655 l
0.5311 0.5627 l
0.5313 0.5596 l
0.5316 0.5562 l
0.5319 0.5525 l
0.5321 0.5486 l
0.5324 0.5444 l
0.5327 0.5401 l
0.5330 0.5357 l
0.5332 0.5312 l
0.5335 0.5266 l
0.5338 0.5220 l
0.5340 0.5173 l
0.5343 0.5128 l
0.5346 0.5083 l
0.5348 0.5038 l
0.5351 0.4996 l
0.5354 0.4954 l
0.5356 0.4914 l
0.5359 0.4876 l
0.5362 0.4840 l
0.5365 0.4806 l
0.5367 0.4775 l
0.5370 0.4745 l
0.5373 0.4718 l
0.5375 0.4693 l
0.5378 0.4670 l
0.5381 0.4649 l
0.5383 0.4631 l
0.5386 0.4615 l
0.5389 0.4600 l
0.5391 0.4587 l
0.5394 0.4577 l
0.5397 0.4567 l
0.5400 0.4559 l
0.5402 0.4553 l
0.5405 0.4548 l
0.5408 0.4543 l
0.5410 0.4540 l
0.5413 0.4537 l
0.5416 0.4535 l
0.5418 0.4534 l
0.5421 0.4533 l
0.5424 0.4532 l
0.5426 0.4532 l
0.5429 0.4532 l
0.5432 0.4532 l
0.5435 0.4532 l
0.5437 0.4532 l
0.5440 0.4533 l
0.5443 0.4533 l
0.5445 0.4533 l
0.5448 0.4533 l
0.5451 0.4533 l
0.5453 0.4533 l
0.5456 0.4533 l
0.5459 0.4533 l
0.5461 0.4532 l
0.5464 0.4532 l
0.5467 0.4532 l
0.5470 0.4531 l
0.5472 0.4531 l
0.5475 0.4531 l
0.5478 0.4530 l
0.5480 0.4530 l
0.5483 0.4530 l
0.5486 0.4530 l
0.5488 0.4529 l
0.5491 0.4529 l
0.5494 0.4529 l
0.5497 0.4529 l
0.5499 0.4529 l
0.5502 0.4529 l
0.5505 0.4529 l
0.5507 0.4529 l
0.5510 0.4529 l
0.5513 0.4529 l
0.5515 0.4529 l
0.5518 0.4529 l
0.5521 0.4529 l
0.5523 0.4529 l
0.5526 0.4529 l
0.5529 0.4529 l
0.5532 0.4529 l
0.5534 0.4529 l
0.5537 0.4529 l
0.5540 0.4529 l
0.5542 0.4529 l
0.5545 0.4529 l
0.5548 0.4529 l
0.5550 0.4529 l
0.5553 0.4529 l
0.5556 0.4529 l
0.5558 0.4529 l
0.5561 0.4529 l
0.5564 0.4529 l
0.5567 0.4529 l
0.5569 0.4529 l
0.5572 0.4529 l
0.5575 0.4529 l
0.5577 0.4529 l
0.5580 0.4529 l
0.5583 0.4529 l
0.5585 0.4529 l
0.5588 0.4529 l
0.5591 0.4529 l
0.5593 0.4529 l
0.5596 0.4529 l
0.5599 0.4529 l
0.5602 0.4529 l
0.5604 0.4529 l
0.5607 0.4529 l
0.5610 0.4529 l
0.5612 0.4529 l
0.5615 0.4529 l
0.5618 0.4529 l
0.5620 0.4529 l
0.5623 0.4529 l
0.5626 0.4529 l
0.5628 0.4529 l
0.5631 0.4529 l
0.5634 0.4529 l
0.5637 0.4530 l
0.5639 0.4530 l
0.5642 0.4530 l
0.5645 0.4530 l
0.5647 0.4531 l
0.5650 0.4531 l
0.5653 0.4531 l
0.5655 0.4532 l
0.5658 0.4532 l
0.5661 0.4532 l
0.5663 0.4532 l
0.5666 0.4533 l
0.5669 0.4533 l
0.5672 0.4533 l
0.5674 0.4533 l
0.5677 0.4533 l
0.5680 0.4533 l
0.5682 0.4533 l
0.5685 0.4533 l
0.5688 0.4532 l
0.5690 0.4532 l
0.5693 0.4532 l
0.5696 0.4532 l
0.5698 0.4532 l
0.5701 0.4533 l
0.5704 0.4533 l
0.5707 0.4535 l
0.5709 0.4536 l
0.5712 0.4539 l
0.5715 0.4542 l
0.5717 0.4545 l
0.5720 0.4550 l
0.5723 0.4556 l
0.5725 0.4563 l
0.5728 0.4572 l
0.5731 0.4582 l
0.5733 0.4594 l
0.5736 0.4607 l
0.5739 0.4623 l
0.5742 0.4640 l
0.5744 0.4660 l
0.5747 0.4681 l
0.5750 0.4705 l
0.5752 0.4731 l
0.5755 0.4759 l
0.5758 0.4790 l
0.5760 0.4822 l
0.5763 0.4857 l
0.5766 0.4894 l
0.5769 0.4933 l
0.5771 0.4973 l
0.5774 0.5015 l
0.5777 0.5058 l
0.5779 0.5103 l
0.5782 0.5148 l
0.5785 0.5194 l
0.5787 0.5240 l
0.5790 0.5285 l
0.5793 0.5331 l
0.5795 0.5375 l
0.5798 0.5419 l
0.5801 0.5461 l
0.5804 0.5501 l
0.5806 0.5539 l
0.5809 0.5575 l
0.5812 0.5607 l
0.5814 0.5637 l
0.5817 0.5663 l
0.5820 0.5685 l
0.5822 0.5704 l
0.5825 0.5719 l
0.5828 0.5730 l
0.5830 0.5736 l
0.5833 0.5738 l
0.5836 0.5736 l
0.5839 0.5729 l
0.5841 0.5718 l
0.5844 0.5703 l
0.5847 0.5684 l
0.5849 0.5662 l
0.5852 0.5635 l
0.5855 0.5606 l
0.5857 0.5573 l
0.5860 0.5537 l
0.5863 0.5499 l
0.5865 0.5459 l
0.5868 0.5417 l
0.5871 0.5373 l
0.5874 0.5329 l
0.5876 0.5283 l
0.5879 0.5238 l
0.5882 0.5192 l
0.5884 0.5146 l
0.5887 0.5101 l
0.5890 0.5057 l
0.5892 0.5013 l
0.5895 0.4972 l
0.5898 0.4931 l
0.5900 0.4893 l
0.5903 0.4856 l
0.5906 0.4821 l
0.5909 0.4789 l
0.5911 0.4758 l
0.5914 0.4730 l
0.5917 0.4704 l
0.5919 0.4680 l
0.5922 0.4659 l
0.5925 0.4640 l
0.5927 0.4622 l
0.5930 0.4607 l
0.5933 0.4593 l
0.5935 0.4582 l
0.5938 0.4572 l
0.5941 0.4563 l
0.5944 0.4556 l
0.5946 0.4550 l
0.5949 0.4545 l
0.5952 0.4541 l
0.5954 0.4538 l
0.5957 0.4536 l
0.5960 0.4534 l
0.5962 0.4533 l
0.5965 0.4533 l
0.5968 0.4532 l
0.5970 0.4532 l
0.5973 0.4532 l
0.5976 0.4532 l
0.5979 0.4532 l
0.5981 0.4532 l
0.5984 0.4533 l
0.5987 0.4533 l
0.5989 0.4533 l
0.5992 0.4533 l
0.5995 0.4533 l
0.5997 0.4533 l
0.6000 0.4533 l
0.6003 0.4532 l
0.6005 0.4532 l
0.6008 0.4532 l
0.6011 0.4532 l
0.6014 0.4531 l
0.6016 0.4531 l
0.6019 0.4531 l
0.6022 0.4530 l
0.6024 0.4530 l
0.6027 0.4530 l
0.6030 0.4529 l
0.6032 0.4529 l
0.6035 0.4529 l
0.6038 0.4529 l
0.6041 0.4529 l
0.6043 0.4529 l
0.6046 0.4529 l
0.6049 0.4529 l
0.6051 0.4529 l
0.6054 0.4529 l
0.6057 0.4529 l
0.6059 0.4529 l
0.6062 0.4529 l
0.6065 0.4529 l
0.6067 0.4529 l
0.6070 0.4529 l
0.6073 0.4529 l
0.6076 0.4529 l
0.6078 0.4529 l
0.6081 0.4529 l
0.6084 0.4529 l
0.6086 0.4529 l
0.6089 0.4529 l
0.6092 0.4529 l
0.6094 0.4529 l
0.6097 0.4529 l
0.6100 0.4529 l
0.6102 0.4529 l
0.6105 0.4529 l
0.6108 0.4529 l
0.6111 0.4528 l
0.6113 0.4528 l
0.6116 0.4528 l
0.6119 0.4528 l
0.6121 0.4528 l
0.6124 0.4528 l
0.6127 0.4528 l
0.6129 0.4528 l
0.6132 0.4528 l
0.6135 0.4528 l
0.6137 0.4528 l
0.6140 0.4528 l
0.6143 0.4528 l
0.6146 0.4528 l
0.6148 0.4528 l
0.6151 0.4528 l
0.6154 0.4528 l
0.6156 0.4528 l
0.6159 0.4528 l
0.6162 0.4528 l
0.6164 0.4528 l
0.6167 0.4528 l
0.6170 0.4528 l
0.6172 0.4528 l
0.6175 0.4528 l
0.6178 0.4528 l
0.6181 0.4528 l
0.6183 0.4528 l
0.6186 0.4528 l
0.6189 0.4528 l
0.6191 0.4528 l
0.6194 0.4528 l
0.6197 0.4528 l
0.6199 0.4528 l
0.6202 0.4528 l
0.6205 0.4528 l
0.6207 0.4528 l
0.6210 0.4528 l
0.6213 0.4528 l
0.6216 0.4528 l
0.6218 0.4528 l
0.6221 0.4528 l
0.6224 0.4528 l
0.6226 0.4528 l
0.6229 0.4528 l
0.6232 0.4528 l
0.6234 0.4528 l
0.6237 0.4528 l
0.6240 0.4528 l
0.6242 0.4528 l
0.6245 0.4528 l
0.6248 0.4528 l
0.6251 0.4528 l
0.6253 0.4528 l
0.6256 0.4528 l
0.6259 0.4528 l
0.6261 0.4528 l
0.6264 0.4528 l
0.6267 0.4528 l
0.6269 0.4528 l
0.6272 0.4528 l
0.6275 0.4528 l
0.6277 0.4528 l
0.6280 0.4528 l
0.6283 0.4528 l
0.6286 0.4528 l
0.6288 0.4528 l
0.6291 0.4528 l
0.6294 0.4528 l
0.6296 0.4528 l
0.6299 0.4528 l
0.6302 0.4528 l
0.6304 0.4528 l
0.6307 0.4528 l
0.6310 0.4528 l
0.6313 0.4528 l
0.6315 0.4528 l
0.6318 0.4528 l
0.6321 0.4528 l
0.6323 0.4528 l
0.6326 0.4528 l
0.6329 0.4528 l
0.6331 0.4528 l
0.6334 0.4528 l
0.6337 0.4528 l
0.6339 0.4528 l
0.6342 0.4528 l
0.6345 0.4528 l
0.6348 0.4528 l
0.6350 0.4528 l
0.6353 0.4528 l
0.6356 0.4528 l
0.6358 0.4528 l
0.6361 0.4528 l
0.6364 0.4528 l
0.6366 0.4528 l
0.6369 0.4528 l
0.6372 0.4528 l
0.6374 0.4528 l
0.6377 0.4528 l
0.6380 0.4528 l
0.6383 0.4528 l
0.6385 0.4528 l
0.6388 0.4528 l
0.6391 0.4528 l
0.6393 0.4528 l
0.6396 0.4528 l
0.6399 0.4528 l
0.6401 0.4528 l
0.6404 0.4528 l
0.6407 0.4528 l
0.6409 0.4528 l
0.6412 0.4528 l
0.6415 0.4528 l
0.6418 0.4528 l
0.6420 0.4528 l
0.6423 0.4528 l
0.6426 0.4528 l
0.6428 0.4528 l
0.6431 0.4528 l
0.6434 0.4528 l
0.6436 0.4528 l
0.6439 0.4528 l
0.6442 0.4528 l
0.6444 0.4528 l
0.6447 0.4528 l
0.6450 0.4528 l
0.6453 0.4528 l
0.6455 0.4528 l
0.6458 0.4528 l
0.6461 0.4528 l
0.6463 0.4528 l
0.6466 0.4528 l
0.6469 0.4528 l
0.6471 0.4528 l
0.6474 0.4528 l
0.6477 0.4528 l
0.6479 0.4528 l
0.6482 0.4528 l
0.6485 0.4528 l
0.6488 0.4528 l
0.6490 0.4528 l
0.6493 0.4528 l
0.6496 0.4528 l
0.6498 0.4528 l
0.6501 0.4528 l
0.6504 0.4528 l
0.6506 0.4528 l
0.6509 0.4528 l
0.6512 0.4528 l
0.6514 0.4528 l
0.6517 0.4528 l
0.6520 0.4528 l
0.6523 0.4528 l
0.6525 0.4528 l
0.6528 0.4528 l
0.6531 0.4528 l
0.6533 0.4528 l
0.6536 0.4528 l
0.6539 0.4528 l
0.6541 0.4528 l
0.6544 0.4528 l
0.6547 0.4528 l
0.6549 0.4528 l
0.6552 0.4528 l
0.6555 0.4528 l
0.6558 0.4528 l
0.6560 0.4528 l
0.6563 0.4528 l
0.6566 0.4528 l
0.6568 0.4528 l
0.6571 0.4528 l
0.6574 0.4528 l
0.6576 0.4528 l
0.6579 0.4528 l
0.6582 0.4528 l
0.6585 0.4528 l
0.6587 0.4528 l
0.6590 0.4528 l
0.6593 0.4528 l
0.6595 0.4528 l
0.6598 0.4528 l
0.6601 0.4528 l
0.6603 0.4528 l
0.6606 0.4528 l
0.6609 0.4528 l
0.6611 0.4528 l
0.6614 0.4528 l
0.6617 0.4528 l
0.6620 0.4528 l
0.6622 0.4528 l
0.6625 0.4528 l
0.6628 0.4528 l
0.6630 0.4528 l
0.6633 0.4528 l
0.6636 0.4528 l
0.6638 0.4528 l
0.6641 0.4528 l
0.6644 0.4528 l
0.6646 0.4528 l
0.6649 0.4528 l
0.6652 0.4528 l
0.6655 0.4528 l
0.6657 0.4528 l
0.6660 0.4528 l
0.6663 0.4528 l
0.6665 0.4528 l
0.6668 0.4528 l
0.6671 0.4528 l
0.6673 0.4528 l
0.6676 0.4528 l
0.6679 0.4528 l
0.6681 0.4528 l
0.6684 0.4528 l
0.6687 0.4528 l
0.6690 0.4528 l
0.6692 0.4528 l
0.6695 0.4528 l
0.6698 0.4528 l
0.6700 0.4528 l
0.6703 0.4528 l
0.6706 0.4528 l
0.6708 0.4528 l
0.6711 0.4528 l
0.6714 0.4528 l
0.6716 0.4528 l
0.6719 0.4528 l
0.6722 0.4528 l
0.6725 0.4528 l
0.6727 0.4528 l
0.6730 0.4528 l
0.6733 0.4528 l
0.6735 0.4528 l
0.6738 0.4528 l
0.6741 0.4528 l
0.6743 0.4528 l
0.6746 0.4528 l
0.6749 0.4528 l
0.6751 0.4528 l
0.6754 0.4528 l
0.6757 0.4528 l
0.6760 0.4528 l
0.6762 0.4528 l
0.6765 0.4528 l
0.6768 0.4528 l
0.6770 0.4528 l
0.6773 0.4528 l
0.6776 0.4528 l
0.6778 0.4528 l
0.6781 0.4528 l
0.6784 0.4528 l
0.6786 0.4528 l
0.6789 0.4528 l
0.6792 0.4528 l
0.6795 0.4528 l
0.6797 0.4528 l
0.6800 0.4528 l
0.6803 0.4528 l
0.6805 0.4528 l
0.6808 0.4528 l
0.6811 0.4528 l
0.6813 0.4528 l
0.6816 0.4528 l
0.6819 0.4528 l
0.6821 0.4528 l
0.6824 0.4528 l
0.6827 0.4528 l
0.6830 0.4528 l
0.6832 0.4528 l
0.6835 0.4528 l
0.6838 0.4528 l
0.6840 0.4528 l
0.6843 0.4528 l
0.6846 0.4528 l
0.6848 0.4528 l
0.6851 0.4528 l
0.6854 0.4528 l
0.6857 0.4528 l
0.6859 0.4528 l
0.6862 0.4528 l
0.6865 0.4528 l
0.6867 0.4528 l
0.6870 0.4528 l
0.6873 0.4528 l
0.6875 0.4528 l
0.6878 0.4528 l
0.6881 0.4528 l
0.6883 0.4528 l
0.6886 0.4528 l
0.6889 0.4528 l
0.6892 0.4528 l
0.6894 0.4528 l
0.6897 0.4528 l
0.6900 0.4528 l
0.6902 0.4528 l
0.6905 0.4528 l
0.6908 0.4528 l
0.6910 0.4528 l
0.6913 0.4528 l
0.6916 0.4528 l
0.6918 0.4528 l
0.6921 0.4528 l
0.6924 0.4528 l
0.6927 0.4528 l
0.6929 0.4528 l
0.6932 0.4528 l
0.6935 0.4529 l
0.6937 0.4529 l
0.6940 0.4529 l
0.6943 0.4529 l
0.6945 0.4529 l
0.6948 0.4529 l
0.6951 0.4529 l
0.6953 0.4529 l
0.6956 0.4529 l
0.6959 0.4529 l
0.6962 0.4529 l
0.6964 0.4529 l
0.6967 0.4529 l
0.6970 0.4529 l
0.6972 0.4529 l
0.6975 0.4529 l
0.6978 0.4529 l
0.6980 0.4529 l
0.6983 0.4529 l
0.6986 0.4529 l
0.6988 0.4529 l
0.6991 0.4529 l
0.6994 0.4529 l
0.6997 0.4529 l
0.6999 0.4529 l
0.7002 0.4529 l
0.7005 0.4529 l
0.7007 0.4529 l
0.7010 0.4529 l
0.7013 0.4530 l
0.7015 0.4530 l
0.7018 0.4530 l
0.7021 0.4530 l
0.7023 0.4530 l
0.7026 0.4531 l
0.7029 0.4531 l
0.7032 0.4531 l
0.7034 0.4531 l
0.7037 0.4531 l
0.7040 0.4532 l
0.7042 0.4532 l
0.7045 0.4532 l
0.7048 0.4532 l
0.7050 0.4532 l
0.7053 0.4532 l
0.7056 0.4532 l
0.7058 0.4532 l
0.7061 0.4532 l
0.7064 0.4533 l
0.7067 0.4533 l
0.7069 0.4533 l
0.7072 0.4534 l
0.7075 0.4535 l
0.7077 0.4536 l
0.7080 0.4537 l
0.7083 0.4539 l
0.7085 0.4541 l
0.7088 0.4544 l
0.7091 0.4548 l
0.7093 0.4552 l
0.7096 0.4557 l
0.7099 0.4563 l
0.7102 0.4571 l
0.7104 0.4579 l
0.7107 0.4589 l
0.7110 0.4600 l
0.7112 0.4613 l
0.7115 0.4627 l
0.7118 0.4643 l
0.7120 0.4661 l
0.7123 0.4680 l
0.7126 0.4701 l
0.7129 0.4724 l
0.7131 0.4749 l
0.7134 0.4776 l
0.7137 0.4805 l
0.7139 0.4835 l
0.7142 0.4868 l
0.7145 0.4901 l
0.7147 0.4937 l
0.7150 0.4973 l
0.7153 0.5011 l
0.7155 0.5050 l
0.7158 0.5090 l
0.7161 0.5131 l
0.7164 0.5171 l
0.7166 0.5212 l
0.7169 0.5253 l
0.7172 0.5293 l
0.7174 0.5333 l
0.7177 0.5372 l
0.7180 0.5409 l
0.7182 0.5445 l
0.7185 0.5479 l
0.7188 0.5511 l
0.7190 0.5541 l
0.7193 0.5568 l
0.7196 0.5592 l
0.7199 0.5613 l
0.7201 0.5631 l
0.7204 0.5646 l
0.7207 0.5657 l
0.7209 0.5664 l
0.7212 0.5668 l
0.7215 0.5668 l
0.7217 0.5665 l
0.7220 0.5658 l
0.7223 0.5647 l
0.7225 0.5633 l
0.7228 0.5615 l
0.7231 0.5595 l
0.7234 0.5571 l
0.7236 0.5544 l
0.7239 0.5515 l
0.7242 0.5483 l
0.7244 0.5450 l
0.7247 0.5414 l
0.7250 0.5377 l
0.7252 0.5338 l
0.7255 0.5299 l
0.7258 0.5258 l
0.7260 0.5218 l
0.7263 0.5177 l
0.7266 0.5136 l
0.7269 0.5096 l
0.7271 0.5056 l
0.7274 0.5017 l
0.7277 0.4979 l
0.7279 0.4942 l
0.7282 0.4907 l
0.7285 0.4873 l
0.7287 0.4840 l
0.7290 0.4810 l
0.7293 0.4781 l
0.7295 0.4754 l
0.7298 0.4728 l
0.7301 0.4705 l
0.7304 0.4684 l
0.7306 0.4664 l
0.7309 0.4646 l
0.7312 0.4630 l
0.7314 0.4616 l
0.7317 0.4603 l
0.7320 0.4591 l
0.7322 0.4581 l
0.7325 0.4573 l
0.7328 0.4565 l
0.7330 0.4559 l
0.7333 0.4553 l
0.7336 0.4549 l
0.7339 0.4545 l
0.7341 0.4542 l
0.7344 0.4540 l
0.7347 0.4538 l
0.7349 0.4536 l
0.7352 0.4535 l
0.7355 0.4534 l
0.7357 0.4533 l
0.7360 0.4533 l
0.7363 0.4533 l
0.7365 0.4533 l
0.7368 0.4532 l
0.7371 0.4532 l
0.7374 0.4532 l
0.7376 0.4532 l
0.7379 0.4532 l
0.7382 0.4532 l
0.7384 0.4532 l
0.7387 0.4532 l
0.7390 0.4531 l
0.7392 0.4531 l
0.7395 0.4531 l
0.7398 0.4531 l
0.7401 0.4531 l
0.7403 0.4530 l
0.7406 0.4530 l
0.7409 0.4530 l
0.7411 0.4530 l
0.7414 0.4530 l
0.7417 0.4529 l
0.7419 0.4529 l
0.7422 0.4529 l
0.7425 0.4529 l
0.7427 0.4529 l
0.7430 0.4529 l
0.7433 0.4529 l
0.7436 0.4529 l
0.7438 0.4529 l
0.7441 0.4529 l
0.7444 0.4529 l
0.7446 0.4529 l
0.7449 0.4529 l
0.7452 0.4529 l
0.7454 0.4529 l
0.7457 0.4529 l
0.7460 0.4529 l
0.7462 0.4529 l
0.7465 0.4529 l
0.7468 0.4529 l
0.7471 0.4529 l
0.7473 0.4529 l
0.7476 0.4529 l
0.7479 0.4529 l
0.7481 0.4529 l
0.7484 0.4529 l
0.7487 0.4529 l
0.7489 0.4529 l
0.7492 0.4529 l
0.7495 0.4528 l
0.7497 0.4528 l
0.7500 0.4528 l
0.7503 0.4528 l
0.7506 0.4528 l
0.7508 0.4528 l
0.7511 0.4528 l
0.7514 0.4528 l
0.7516 0.4528 l
0.7519 0.4528 l
0.7522 0.4528 l
0.7524 0.4528 l
0.7527 0.4528 l
0.7530 0.4528 l
0.7532 0.4528 l
0.7535 0.4528 l
0.7538 0.4528 l
0.7541 0.4528 l
0.7543 0.4528 l
0.7546 0.4528 l
0.7549 0.4528 l
0.7551 0.4528 l
0.7554 0.4528 l
0.7557 0.4528 l
0.7559 0.4528 l
0.7562 0.4528 l
0.7565 0.4528 l
0.7567 0.4528 l
0.7570 0.4528 l
0.7573 0.4528 l
0.7576 0.4528 l
0.7578 0.4528 l
0.7581 0.4528 l
0.7584 0.4528 l
0.7586 0.4528 l
0.7589 0.4528 l
0.7592 0.4528 l
0.7594 0.4528 l
0.7597 0.4528 l
0.7600 0.4528 l
0.7602 0.4528 l
0.7605 0.4528 l
0.7608 0.4528 l
0.7611 0.4528 l
0.7613 0.4528 l
0.7616 0.4528 l
0.7619 0.4528 l
0.7621 0.4528 l
0.7624 0.4528 l
0.7627 0.4528 l
0.7629 0.4528 l
0.7632 0.4528 l
0.7635 0.4528 l
0.7637 0.4528 l
0.7640 0.4528 l
0.7643 0.4528 l
0.7646 0.4528 l
0.7648 0.4528 l
0.7651 0.4528 l
0.7654 0.4528 l
0.7656 0.4528 l
0.7659 0.4528 l
0.7662 0.4528 l
0.7664 0.4528 l
0.7667 0.4528 l
0.7670 0.4528 l
0.7673 0.4528 l
0.7675 0.4528 l
0.7678 0.4528 l
0.7681 0.4528 l
0.7683 0.4528 l
0.7686 0.4528 l
0.7689 0.4528 l
0.7691 0.4528 l
0.7694 0.4528 l
0.7697 0.4528 l
0.7699 0.4528 l
0.7702 0.4528 l
0.7705 0.4528 l
0.7708 0.4528 l
0.7710 0.4528 l
0.7713 0.4528 l
0.7716 0.4528 l
0.7718 0.4528 l
0.7721 0.4528 l
0.7724 0.4528 l
0.7726 0.4528 l
0.7729 0.4528 l
0.7732 0.4528 l
0.7734 0.4528 l
0.7737 0.4528 l
0.7740 0.4528 l
0.7743 0.4528 l
0.7745 0.4528 l
0.7748 0.4528 l
0.7751 0.4528 l
0.7753 0.4528 l
0.7756 0.4528 l
0.7759 0.4528 l
0.7761 0.4528 l
0.7764 0.4528 l
0.7767 0.4528 l
0.7769 0.4528 l
0.7772 0.4528 l
0.7775 0.4528 l
0.7778 0.4528 l
0.7780 0.4528 l
0.7783 0.4528 l
0.7786 0.4528 l
0.7788 0.4528 l
0.7791 0.4528 l
0.7794 0.4528 l
0.7796 0.4528 l
0.7799 0.4528 l
0.7802 0.4528 l
0.7804 0.4528 l
0.7807 0.4528 l
0.7810 0.4528 l
0.7813 0.4528 l
0.7815 0.4528 l
0.7818 0.4528 l
0.7821 0.4528 l
0.7823 0.4528 l
0.7826 0.4528 l
0.7829 0.4528 l
0.7831 0.4528 l
0.7834 0.4528 l
0.7837 0.4528 l
0.7839 0.4528 l
0.7842 0.4528 l
0.7845 0.4528 l
0.7848 0.4528 l
0.7850 0.4528 l
0.7853 0.4528 l
0.7856 0.4528 l
0.7858 0.4528 l
0.7861 0.4528 l
0.7864 0.4528 l
0.7866 0.4528 l
0.7869 0.4528 l
0.7872 0.4528 l
0.7874 0.4528 l
0.7877 0.4528 l
0.7880 0.4528 l
0.7883 0.4528 l
0.7885 0.4528 l
0.7888 0.4528 l
0.7891 0.4528 l
0.7893 0.4528 l
0.7896 0.4528 l
0.7899 0.4528 l
0.7901 0.4528 l
0.7904 0.4528 l
0.7907 0.4528 l
0.7909 0.4528 l
0.7912 0.4528 l
0.7915 0.4528 l
0.7918 0.4528 l
0.7920 0.4528 l
0.7923 0.4528 l
0.7926 0.4528 l
0.7928 0.4528 l
0.7931 0.4528 l
0.7934 0.4528 l
0.7936 0.4528 l
0.7939 0.4528 l
0.7942 0.4528 l
0.7945 0.4528 l
0.7947 0.4528 l
0.7950 0.4528 l
0.7953 0.4528 l
0.7955 0.4528 l
0.7958 0.4528 l
0.7961 0.4528 l
0.7963 0.4528 l
0.7966 0.4528 l
0.7969 0.4528 l
0.7971 0.4528 l
0.7974 0.4528 l
0.7977 0.4528 l
0.7980 0.4528 l
0.7982 0.4528 l
0.7985 0.4528 l
0.7988 0.4528 l
0.7990 0.4528 l
0.7993 0.4528 l
0.7996 0.4528 l
0.7998 0.4528 l
0.8001 0.4528 l
0.8004 0.4528 l
0.8006 0.4528 l
0.8009 0.4528 l
0.8012 0.4528 l
0.8015 0.4528 l
0.8017 0.4528 l
0.8020 0.4528 l
0.8023 0.4528 l
0.8025 0.4528 l
0.8028 0.4528 l
0.8031 0.4528 l
0.8033 0.4528 l
0.8036 0.4528 l
0.8039 0.4528 l
0.8041 0.4528 l
0.8044 0.4528 l
0.8047 0.4528 l
0.8050 0.4528 l
0.8052 0.4528 l
0.8055 0.4528 l
0.8058 0.4528 l
0.8060 0.4528 l
0.8063 0.4528 l
0.8066 0.4528 l
0.8068 0.4528 l
0.8071 0.4528 l
0.8074 0.4528 l
0.8076 0.4528 l
0.8079 0.4528 l
0.8082 0.4528 l
0.8085 0.4528 l
0.8087 0.4528 l
0.8090 0.4528 l
0.8093 0.4528 l
0.8095 0.4528 l
0.8098 0.4528 l
0.8101 0.4528 l
0.8103 0.4528 l
0.8106 0.4528 l
0.8109 0.4528 l
0.8111 0.4528 l
0.8114 0.4528 l
0.8117 0.4528 l
0.8120 0.4528 l
0.8122 0.4528 l
0.8125 0.4528 l
0.8128 0.4528 l
0.8130 0.4528 l
0.8133 0.4528 l
0.8136 0.4528 l
0.8138 0.4528 l
0.8141 0.4528 l
0.8144 0.4528 l
0.8146 0.4528 l
0.8149 0.4528 l
0.8152 0.4528 l
0.8155 0.4528 l
0.8157 0.4528 l
0.8160 0.4528 l
0.8163 0.4528 l
0.8165 0.4528 l
0.8168 0.4528 l
0.8171 0.4528 l
0.8173 0.4528 l
0.8176 0.4528 l
0.8179 0.4528 l
0.8181 0.4528 l
0.8184 0.4528 l
0.8187 0.4528 l
0.8190 0.4528 l
0.8192 0.4528 l
0.8195 0.4528 l
0.8198 0.4528 l
0.8200 0.4528 l
0.8203 0.4528 l
0.8206 0.4528 l
0.8208 0.4528 l
0.8211 0.4528 l
0.8214 0.4528 l
0.8217 0.4528 l
0.8219 0.4528 l
0.8222 0.4528 l
0.8225 0.4528 l
0.8227 0.4528 l
0.8230 0.4528 l
0.8233 0.4528 l
0.8235 0.4528 l
0.8238 0.4528 l
0.8241 0.4528 l
0.8243 0.4528 l
0.8246 0.4528 l
0.8249 0.4528 l
0.8252 0.4528 l
0.8254 0.4528 l
0.8257 0.4528 l
0.8260 0.4528 l
0.8262 0.4528 l
0.8265 0.4528 l
0.8268 0.4528 l
0.8270 0.4528 l
0.8273 0.4528 l
0.8276 0.4528 l
0.8278 0.4528 l
0.8281 0.4528 l
0.8284 0.4528 l
0.8287 0.4528 l
0.8289 0.4528 l
0.8292 0.4528 l
0.8295 0.4528 l
0.8297 0.4528 l
0.8300 0.4528 l
0.8303 0.4528 l
0.8305 0.4528 l
0.8308 0.4528 l
0.8311 0.4528 l
0.8313 0.4528 l
0.8316 0.4528 l
0.8319 0.4529 l
0.8322 0.4529 l
0.8324 0.4529 l
0.8327 0.4529 l
0.8330 0.4529 l
0.8332 0.4529 l
0.8335 0.4529 l
0.8338 0.4529 l
0.8340 0.4529 l
0.8343 0.4529 l
0.8346 0.4529 l
0.8348 0.4529 l
0.8351 0.4529 l
0.8354 0.4529 l
0.8357 0.4529 l
0.8359 0.4529 l
0.8362 0.4529 l
0.8365 0.4529 l
0.8367 0.4529 l
0.8370 0.4529 l
0.8373 0.4529 l
0.8375 0.4529 l
0.8378 0.4529 l
0.8381 0.4529 l
0.8383 0.4529 l
0.8386 0.4529 l
0.8389 0.4529 l
0.8392 0.4529 l
0.8394 0.4529 l
0.8397 0.4529 l
0.8400 0.4530 l
0.8402 0.4530 l
0.8405 0.4530 l
0.8408 0.4531 l
0.8410 0.4531 l
0.8413 0.4531 l
0.8416 0.4532 l
0.8418 0.4532 l
0.8421 0.4532 l
0.8424 0.4532 l
0.8427 0.4533 l
0.8429 0.4533 l
0.8432 0.4533 l
0.8435 0.4533 l
0.8437 0.4533 l
0.8440 0.4533 l
0.8443 0.4533 l
0.8445 0.4532 l
0.8448 0.4532 l
0.8451 0.4532 l
0.8453 0.4532 l
0.8456 0.4532 l
0.8459 0.4532 l
0.8462 0.4533 l
0.8464 0.4534 l
0.8467 0.4535 l
0.8470 0.4536 l
0.8472 0.4539 l
0.8475 0.4542 l
0.8478 0.4546 l
0.8480 0.4551 l
0.8483 0.4557 l
0.8486 0.4564 l
0.8489 0.4573 l
0.8491 0.4583 l
0.8494 0.4595 l
0.8497 0.4608 l
0.8499 0.4624 l
0.8502 0.4641 l
0.8505 0.4661 l
0.8507 0.4683 l
0.8510 0.4706 l
0.8513 0.4733 l
0.8515 0.4761 l
0.8518 0.4792 l
0.8521 0.4824 l
0.8524 0.4859 l
0.8526 0.4896 l
0.8529 0.4935 l
0.8532 0.4975 l
0.8534 0.5017 l
0.8537 0.5061 l
0.8540 0.5105 l
0.8542 0.5150 l
0.8545 0.5196 l
0.8548 0.5242 l
0.8550 0.5288 l
0.8553 0.5333 l
0.8556 0.5377 l
0.8559 0.5421 l
0.8561 0.5463 l
0.8564 0.5503 l
0.8567 0.5541 l
0.8569 0.5576 l
0.8572 0.5609 l
0.8575 0.5638 l
0.8577 0.5664 l
0.8580 0.5687 l
0.8583 0.5705 l
0.8585 0.5720 l
0.8588 0.5731 l
0.8591 0.5737 l
0.8594 0.5739 l
0.8596 0.5736 l
0.8599 0.5730 l
0.8602 0.5719 l
0.8604 0.5704 l
0.8607 0.5685 l
0.8610 0.5662 l
0.8612 0.5635 l
0.8615 0.5605 l
0.8618 0.5572 l
0.8620 0.5537 l
0.8623 0.5499 l
0.8626 0.5458 l
0.8629 0.5416 l
0.8631 0.5372 l
0.8634 0.5328 l
0.8637 0.5282 l
0.8639 0.5236 l
0.8642 0.5190 l
0.8645 0.5145 l
0.8647 0.5099 l
0.8650 0.5055 l
0.8653 0.5012 l
0.8655 0.4970 l
0.8658 0.4930 l
0.8661 0.4891 l
0.8664 0.4854 l
0.8666 0.4820 l
0.8669 0.4787 l
0.8672 0.4757 l
0.8674 0.4729 l
0.8677 0.4703 l
0.8680 0.4679 l
0.8682 0.4658 l
0.8685 0.4638 l
0.8688 0.4621 l
0.8690 0.4606 l
0.8693 0.4593 l
0.8696 0.4581 l
0.8699 0.4571 l
0.8701 0.4563 l
0.8704 0.4556 l
0.8707 0.4550 l
0.8709 0.4545 l
0.8712 0.4541 l
0.8715 0.4538 l
0.8717 0.4536 l
0.8720 0.4534 l
0.8723 0.4533 l
0.8725 0.4533 l
0.8728 0.4532 l
0.8731 0.4532 l
0.8734 0.4532 l
0.8736 0.4532 l
0.8739 0.4532 l
0.8742 0.4533 l
0.8744 0.4533 l
0.8747 0.4533 l
0.8750 0.4533 l
0.8752 0.4533 l
0.8755 0.4533 l
0.8758 0.4533 l
0.8761 0.4533 l
0.8763 0.4532 l
0.8766 0.4532 l
0.8769 0.4532 l
0.8771 0.4532 l
0.8774 0.4531 l
0.8777 0.4531 l
0.8779 0.4531 l
0.8782 0.4530 l
0.8785 0.4530 l
0.8787 0.4530 l
0.8790 0.4530 l
0.8793 0.4529 l
0.8796 0.4529 l
0.8798 0.4529 l
0.8801 0.4529 l
0.8804 0.4529 l
0.8806 0.4529 l
0.8809 0.4529 l
0.8812 0.4529 l
0.8814 0.4529 l
0.8817 0.4529 l
0.8820 0.4529 l
0.8822 0.4529 l
0.8825 0.4529 l
0.8828 0.4529 l
0.8831 0.4529 l
0.8833 0.4529 l
0.8836 0.4529 l
0.8839 0.4529 l
0.8841 0.4529 l
0.8844 0.4529 l
0.8847 0.4529 l
0.8849 0.4529 l
0.8852 0.4529 l
0.8855 0.4529 l
0.8857 0.4529 l
0.8860 0.4529 l
0.8863 0.4529 l
0.8866 0.4529 l
0.8868 0.4529 l
0.8871 0.4529 l
0.8874 0.4529 l
0.8876 0.4529 l
0.8879 0.4529 l
0.8882 0.4529 l
0.8884 0.4529 l
0.8887 0.4529 l
0.8890 0.4529 l
0.8892 0.4529 l
0.8895 0.4529 l
0.8898 0.4529 l
0.8901 0.4529 l
0.8903 0.4529 l
0.8906 0.4529 l
0.8909 0.4529 l
0.8911 0.4529 l
0.8914 0.4529 l
0.8917 0.4529 l
0.8919 0.4529 l
0.8922 0.4529 l
0.8925 0.4529 l
0.8927 0.4529 l
0.8930 0.4529 l
0.8933 0.4529 l
0.8936 0.4529 l
0.8938 0.4530 l
0.8941 0.4530 l
0.8944 0.4530 l
0.8946 0.4530 l
0.8949 0.4531 l
0.8952 0.4531 l
0.8954 0.4531 l
0.8957 0.4531 l
0.8960 0.4532 l
0.8962 0.4532 l
0.8965 0.4532 l
0.8968 0.4533 l
0.8971 0.4533 l
0.8973 0.4533 l
0.8976 0.4533 l
0.8979 0.4533 l
0.8981 0.4533 l
0.8984 0.4533 l
0.8987 0.4533 l
0.8989 0.4532 l
0.8992 0.4532 l
0.8995 0.4532 l
0.8997 0.4532 l
0.9000 0.4532 l
0.9003 0.4532 l
0.9006 0.4533 l
0.9008 0.4534 l
0.9011 0.4535 l
0.9014 0.4537 l
0.9016 0.4540 l
0.9019 0.4543 l
0.9022 0.4548 l
0.9024 0.4553 l
0.9027 0.4560 l
0.9030 0.4568 l
0.9033 0.4577 l
0.9035 0.4588 l
0.9038 0.4601 l
0.9041 0.4615 l
0.9043 0.4632 l
0.9046 0.4650 l
0.9049 0.4671 l
0.9051 0.4694 l
0.9054 0.4719 l
0.9057 0.4746 l
0.9059 0.4776 l
0.9062 0.4808 l
0.9065 0.4842 l
0.9068 0.4878 l
0.9070 0.4916 l
0.9073 0.4956 l
0.9076 0.4997 l
0.9078 0.5040 l
0.9081 0.5085 l
0.9084 0.5130 l
0.9086 0.5175 l
0.9089 0.5221 l
0.9092 0.5268 l
0.9094 0.5314 l
0.9097 0.5359 l
0.9100 0.5403 l
0.9103 0.5446 l
0.9105 0.5487 l
0.9108 0.5526 l
0.9111 0.5563 l
0.9113 0.5597 l
0.9116 0.5628 l
0.9119 0.5656 l
0.9121 0.5680 l
0.9124 0.5700 l
0.9127 0.5717 l
0.9129 0.5729 l
0.9132 0.5737 l
0.9135 0.5741 l
0.9138 0.5740 l
0.9140 0.5735 l
0.9143 0.5725 l
0.9146 0.5712 l
0.9148 0.5694 l
0.9151 0.5673 l
0.9154 0.5647 l
0.9156 0.5619 l
0.9159 0.5587 l
0.9162 0.5552 l
0.9164 0.5514 l
0.9167 0.5474 l
0.9170 0.5433 l
0.9173 0.5389 l
0.9175 0.5345 l
0.9178 0.5299 l
0.9181 0.5253 l
0.9183 0.5207 l
0.9186 0.5161 l
0.9189 0.5115 l
0.9191 0.5070 l
0.9194 0.5026 l
0.9197 0.4984 l
0.9199 0.4943 l
0.9202 0.4904 l
0.9205 0.4866 l
0.9208 0.4831 l
0.9210 0.4797 l
0.9213 0.4766 l
0.9216 0.4737 l
0.9218 0.4710 l
0.9221 0.4686 l
0.9224 0.4664 l
0.9226 0.4644 l
0.9229 0.4626 l
0.9232 0.4610 l
0.9234 0.4596 l
0.9237 0.4584 l
0.9240 0.4574 l
0.9243 0.4565 l
0.9245 0.4557 l
0.9248 0.4551 l
0.9251 0.4546 l
0.9253 0.4542 l
0.9256 0.4539 l
0.9259 0.4537 l
0.9261 0.4535 l
0.9264 0.4534 l
0.9267 0.4533 l
0.9269 0.4533 l
0.9272 0.4533 l
0.9275 0.4533 l
0.9278 0.4533 l
0.9280 0.4533 l
0.9283 0.4533 l
0.9286 0.4533 l
0.9288 0.4534 l
0.9291 0.4534 l
0.9294 0.4534 l
0.9296 0.4534 l
0.9299 0.4533 l
0.9302 0.4533 l
0.9305 0.4533 l
0.9307 0.4533 l
0.9310 0.4532 l
0.9313 0.4532 l
0.9315 0.4532 l
0.9318 0.4531 l
0.9321 0.4531 l
0.9323 0.4531 l
0.9326 0.4531 l
0.9329 0.4531 l
0.9331 0.4530 l
0.9334 0.4530 l
0.9337 0.4530 l
0.9340 0.4531 l
0.9342 0.4531 l
0.9345 0.4531 l
0.9348 0.4531 l
0.9350 0.4532 l
0.9353 0.4532 l
0.9356 0.4532 l
0.9358 0.4533 l
0.9361 0.4533 l
0.9364 0.4533 l
0.9366 0.4533 l
0.9369 0.4534 l
0.9372 0.4534 l
0.9375 0.4534 l
0.9377 0.4534 l
0.9380 0.4533 l
0.9383 0.4533 l
0.9385 0.4533 l
0.9388 0.4533 l
0.9391 0.4533 l
0.9393 0.4533 l
0.9396 0.4533 l
0.9399 0.4533 l
0.9401 0.4534 l
0.9404 0.4535 l
0.9407 0.4536 l
0.9410 0.4538 l
0.9412 0.4541 l
0.9415 0.4545 l
0.9418 0.4549 l
0.9420 0.4555 l
0.9423 0.4562 l
0.9426 0.4570 l
0.9428 0.4580 l
0.9431 0.4592 l
0.9434 0.4605 l
0.9436 0.4620 l
0.9439 0.4637 l
0.9442 0.4656 l
0.9445 0.4678 l
0.9447 0.4702 l
0.9450 0.4727 l
0.9453 0.4756 l
0.9455 0.4786 l
0.9458 0.4819 l
0.9461 0.4854 l
0.9463 0.4891 l
0.9466 0.4930 l
0.9469 0.4970 l
0.9471 0.5013 l
0.9474 0.5056 l
0.9477 0.5101 l
0.9480 0.5147 l
0.9482 0.5193 l
0.9485 0.5240 l
0.9488 0.5286 l
0.9490 0.5332 l
0.9493 0.5378 l
0.9496 0.5422 l
0.9498 0.5465 l
0.9501 0.5505 l
0.9504 0.5544 l
0.9506 0.5580 l
0.9509 0.5613 l
0.9512 0.5644 l
0.9515 0.5670 l
0.9517 0.5693 l
0.9520 0.5712 l
0.9523 0.5727 l
0.9525 0.5738 l
0.9528 0.5745 l
0.9531 0.5747 l
0.9533 0.5744 l
0.9536 0.5737 l
0.9539 0.5726 l
0.9541 0.5711 l
0.9544 0.5691 l
0.9547 0.5668 l
0.9550 0.5641 l
0.9552 0.5611 l
0.9555 0.5577 l
0.9558 0.5541 l
0.9560 0.5502 l
0.9563 0.5461 l
0.9566 0.5418 l
0.9568 0.5374 l
0.9571 0.5328 l
0.9574 0.5282 l
0.9577 0.5236 l
0.9579 0.5189 l
0.9582 0.5143 l
0.9585 0.5097 l
0.9587 0.5052 l
0.9590 0.5009 l
0.9593 0.4967 l
0.9595 0.4926 l
0.9598 0.4887 l
0.9601 0.4851 l
0.9603 0.4816 l
0.9606 0.4783 l
0.9609 0.4753 l
0.9612 0.4725 l
0.9614 0.4699 l
0.9617 0.4676 l
0.9620 0.4654 l
0.9622 0.4635 l
0.9625 0.4618 l
0.9628 0.4603 l
0.9630 0.4590 l
0.9633 0.4579 l
0.9636 0.4569 l
0.9638 0.4561 l
0.9641 0.4555 l
0.9644 0.4549 l
0.9647 0.4545 l
0.9649 0.4541 l
0.9652 0.4539 l
0.9655 0.4537 l
0.9657 0.4536 l
0.9660 0.4535 l
0.9663 0.4535 l
0.9665 0.4535 l
0.9668 0.4535 l
0.9671 0.4536 l
0.9673 0.4536 l
0.9676 0.4537 l
0.9679 0.4537 l
0.9682 0.4537 l
0.9684 0.4538 l
0.9687 0.4538 l
0.9690 0.4538 l
0.9692 0.4537 l
0.9695 0.4537 l
0.9698 0.4537 l
0.9700 0.4536 l
0.9703 0.4536 l
0.9706 0.4536 l
0.9708 0.4535 l
0.9711 0.4535 l
0.9714 0.4535 l
0.9717 0.4536 l
0.9719 0.4537 l
0.9722 0.4539 l
0.9725 0.4541 l
0.9727 0.4544 l
0.9730 0.4548 l
0.9733 0.4553 l
0.9735 0.4560 l
0.9738 0.4567 l
0.9741 0.4577 l
0.9743 0.4588 l
0.9746 0.4600 l
0.9749 0.4615 l
0.9752 0.4631 l
0.9754 0.4650 l
0.9757 0.4671 l
0.9760 0.4694 l
0.9762 0.4719 l
0.9765 0.4747 l
0.9768 0.4777 l
0.9770 0.4809 l
0.9773 0.4844 l
0.9776 0.4880 l
0.9778 0.4919 l
0.9781 0.4960 l
0.9784 0.5002 l
0.9787 0.5045 l
0.9789 0.5090 l
0.9792 0.5136 l
0.9795 0.5182 l
0.9797 0.5229 l
0.9800 0.5276 l
0.9803 0.5323 l
0.9805 0.5369 l
0.9808 0.5414 l
0.9811 0.5458 l
0.9813 0.5499 l
0.9816 0.5539 l
0.9819 0.5576 l
0.9822 0.5611 l
0.9824 0.5642 l
0.9827 0.5670 l
0.9830 0.5695 l
0.9832 0.5715 l
0.9835 0.5731 l
0.9838 0.5743 l
0.9840 0.5751 l
0.9843 0.5754 l
0.9846 0.5753 l
0.9849 0.5747 l
0.9851 0.5737 l
0.9854 0.5723 l
0.9857 0.5704 l
0.9859 0.5681 l
0.9862 0.5655 l
0.9865 0.5625 l
0.9867 0.5592 l
0.9870 0.5555 l
0.9873 0.5517 l
0.9875 0.5475 l
0.9878 0.5432 l
0.9881 0.5388 l
0.9884 0.5342 l
0.9886 0.5296 l
0.9889 0.5249 l
0.9892 0.5201 l
0.9894 0.5155 l
0.9897 0.5108 l
0.9900 0.5063 l
0.9902 0.5019 l
0.9905 0.4976 l
0.9908 0.4935 l
0.9910 0.4896 l
0.9913 0.4859 l
0.9916 0.4824 l
0.9919 0.4791 l
0.9921 0.4760 l
0.9924 0.4732 l
0.9927 0.4706 l
0.9929 0.4682 l
0.9932 0.4661 l
0.9935 0.4642 l
0.9937 0.4625 l
0.9940 0.4609 l
0.9943 0.4596 l
0.9945 0.4585 l
0.9948 0.4575 l
0.9951 0.4566 l
0.9954 0.4559 l
0.9956 0.4553 l
0.9959 0.4548 l
0.9962 0.4544 l
0.9964 0.4542 l
0.9967 0.4540 l
0.9970 0.4539 l
0.9972 0.4538 l
0.9975 0.4539 l
0.9978 0.4540 l
0.9980 0.4542 l
0.9983 0.4546 l
0.9986 0.4550 l
0.9989 0.4555 l
0.9991 0.4561 l
0.9994 0.4569 l
0.9997 0.4577 l
0.9999 0.4588 l
1.0002 0.4600 l
1.0005 0.4614 l
1.0007 0.4630 l
1.0010 0.4648 l
1.0013 0.4667 l
1.0015 0.4690 l
1.0018 0.4714 l
1.0021 0.4741 l
1.0024 0.4770 l
1.0026 0.4801 l
1.0029 0.4835 l
1.0032 0.4871 l
1.0034 0.4909 l
1.0037 0.4949 l
1.0040 0.4991 l
1.0042 0.5034 l
1.0045 0.5079 l
1.0048 0.5125 l
1.0050 0.5172 l
1.0053 0.5219 l
1.0056 0.5267 l
1.0059 0.5314 l
1.0061 0.5361 l
1.0064 0.5407 l
1.0067 0.5451 l
1.0069 0.5494 l
1.0072 0.5535 l
1.0075 0.5573 l
1.0077 0.5609 l
1.0080 0.5641 l
1.0083 0.5670 l
1.0085 0.5696 l
1.0088 0.5717 l
1.0091 0.5734 l
1.0094 0.5748 l
1.0096 0.5756 l
1.0099 0.5760 l
1.0102 0.5760 l
1.0104 0.5755 l
1.0107 0.5746 l
1.0110 0.5732 l
1.0112 0.5715 l
1.0115 0.5693 l
1.0118 0.5667 l
1.0121 0.5638 l
1.0123 0.5605 l
1.0126 0.5569 l
1.0129 0.5531 l
1.0131 0.5490 l
1.0134 0.5448 l
1.0137 0.5403 l
1.0139 0.5358 l
1.0142 0.5311 l
1.0145 0.5264 l
1.0147 0.5217 l
1.0150 0.5170 l
1.0153 0.5123 l
1.0156 0.5077 l
1.0158 0.5032 l
1.0161 0.4988 l
1.0164 0.4946 l
1.0166 0.4906 l
1.0169 0.4868 l
1.0172 0.4832 l
1.0174 0.4798 l
1.0177 0.4767 l
1.0180 0.4738 l
1.0182 0.4711 l
1.0185 0.4688 l
1.0188 0.4667 l
1.0191 0.4649 l
1.0193 0.4634 l
1.0196 0.4622 l
1.0199 0.4613 l
1.0201 0.4606 l
1.0204 0.4603 l
1.0207 0.4603 l
1.0209 0.4605 l
1.0212 0.4610 l
1.0215 0.4619 l
1.0217 0.4630 l
1.0220 0.4644 l
1.0223 0.4661 l
1.0226 0.4681 l
1.0228 0.4703 l
1.0231 0.4729 l
1.0234 0.4757 l
1.0236 0.4787 l
1.0239 0.4820 l
1.0242 0.4855 l
1.0244 0.4893 l
1.0247 0.4932 l
1.0250 0.4973 l
1.0252 0.5016 l
1.0255 0.5061 l
1.0258 0.5106 l
1.0261 0.5152 l
1.0263 0.5199 l
1.0266 0.5247 l
1.0269 0.5294 l
1.0271 0.5340 l
1.0274 0.5386 l
1.0277 0.5431 l
1.0279 0.5474 l
1.0282 0.5516 l
1.0285 0.5555 l
1.0287 0.5592 l
1.0290 0.5626 l
1.0293 0.5656 l
1.0296 0.5683 l
1.0298 0.5707 l
1.0301 0.5726 l
1.0304 0.5741 l
1.0306 0.5752 l
1.0309 0.5759 l
1.0312 0.5761 l
1.0314 0.5758 l
1.0317 0.5751 l
1.0320 0.5740 l
1.0322 0.5724 l
1.0325 0.5703 l
1.0328 0.5679 l
1.0331 0.5651 l
1.0333 0.5620 l
1.0336 0.5585 l
1.0339 0.5548 l
1.0341 0.5508 l
1.0344 0.5466 l
1.0347 0.5423 l
1.0349 0.5378 l
1.0352 0.5333 l
1.0355 0.5288 l
1.0357 0.5242 l
1.0360 0.5198 l
1.0363 0.5154 l
1.0366 0.5112 l
1.0368 0.5073 l
1.0371 0.5035 l
1.0374 0.5000 l
1.0376 0.4969 l
1.0379 0.4941 l
1.0382 0.4916 l
1.0384 0.4895 l
1.0387 0.4879 l
1.0390 0.4867 l
1.0393 0.4859 l
1.0395 0.4856 l
1.0398 0.4857 l
1.0401 0.4862 l
1.0403 0.4872 l
1.0406 0.4886 l
1.0409 0.4905 l
1.0411 0.4927 l
1.0414 0.4953 l
1.0417 0.4982 l
1.0419 0.5014 l
1.0422 0.5049 l
1.0425 0.5087 l
1.0428 0.5126 l
1.0430 0.5168 l
1.0433 0.5210 l
1.0436 0.5253 l
1.0438 0.5297 l
1.0441 0.5340 l
1.0444 0.5383 l
1.0446 0.5426 l
1.0449 0.5466 l
1.0452 0.5505 l
1.0454 0.5542 l
1.0457 0.5577 l
1.0460 0.5609 l
1.0463 0.5638 l
1.0465 0.5664 l
1.0468 0.5686 l
1.0471 0.5704 l
1.0473 0.5719 l
1.0476 0.5731 l
1.0479 0.5738 l
1.0481 0.5742 l
1.0484 0.5742 l
1.0487 0.5738 l
1.0489 0.5731 l
1.0492 0.5721 l
1.0495 0.5708 l
1.0498 0.5692 l
1.0500 0.5673 l
1.0503 0.5653 l
1.0506 0.5631 l
1.0508 0.5607 l
1.0511 0.5582 l
1.0514 0.5557 l
1.0516 0.5532 l
1.0519 0.5507 l
1.0522 0.5482 l
1.0524 0.5458 l
1.0527 0.5435 l
1.0530 0.5414 l
1.0533 0.5395 l
1.0535 0.5377 l
1.0538 0.5362 l
1.0541 0.5350 l
1.0543 0.5340 l
1.0546 0.5332 l
1.0549 0.5327 l
1.0551 0.5325 l
1.0554 0.5326 l
1.0557 0.5329 l
1.0559 0.5335 l
1.0562 0.5343 l
1.0565 0.5353 l
1.0568 0.5366 l
1.0570 0.5380 l
1.0573 0.5395 l
1.0576 0.5412 l
1.0578 0.5430 l
1.0581 0.5449 l
1.0584 0.5468 l
1.0586 0.5487 l
1.0589 0.5506 l
1.0592 0.5524 l
1.0594 0.5543 l
1.0597 0.5560 l
1.0600 0.5576 l
1.0603 0.5591 l
1.0605 0.5605 l
1.0608 0.5617 l
1.0611 0.5628 l
1.0613 0.5637 l
1.0616 0.5644 l
1.0619 0.5649 l
1.0621 0.5653 l
1.0624 0.5655 l
1.0627 0.5656 l
1.0629 0.5655 l
1.0632 0.5652 l
1.0635 0.5648 l
1.0638 0.5643 l
1.0640 0.5637 l
1.0643 0.5630 l
1.0646 0.5622 l
1.0648 0.5613 l
1.0651 0.5604 l
1.0654 0.5595 l
1.0656 0.5585 l
1.0659 0.5575 l
1.0662 0.5566 l
1.0665 0.5556 l
1.0667 0.5547 l
1.0670 0.5538 l
1.0673 0.5530 l
1.0675 0.5522 l
1.0678 0.5515 l
1.0681 0.5509 l
1.0683 0.5503 l
1.0686 0.5497 l
1.0689 0.5493 l
1.0691 0.5489 l
1.0694 0.5485 l
1.0697 0.5483 l
1.0700 0.5480 l
1.0702 0.5478 l
1.0705 0.5477 l
1.0708 0.5476 l
1.0710 0.5475 l
1.0713 0.5474 l
1.0716 0.5474 l
1.0718 0.5474 l
1.0721 0.5473 l
1.0724 0.5473 l
1.0726 0.5473 l
1.0729 0.5472 l
1.0732 0.5472 l
1.0735 0.5471 l
1.0737 0.5469 l
1.0740 0.5468 l
1.0743 0.5466 l
1.0745 0.5464 l
1.0748 0.5462 l
1.0751 0.5459 l
1.0753 0.5457 l
1.0756 0.5454 l
1.0759 0.5450 l
1.0761 0.5447 l
1.0764 0.5443 l
1.0767 0.5439 l
1.0770 0.5435 l
1.0772 0.5431 l
1.0775 0.5427 l
1.0778 0.5423 l
1.0780 0.5419 l
1.0783 0.5415 l
1.0786 0.5411 l
1.0788 0.5407 l
1.0791 0.5403 l
1.0794 0.5400 l
1.0796 0.5396 l
1.0799 0.5393 l
1.0802 0.5390 l
1.0805 0.5387 l
1.0807 0.5384 l
1.0810 0.5381 l
1.0813 0.5379 l
1.0815 0.5376 l
1.0818 0.5374 l
1.0821 0.5371 l
1.0823 0.5369 l
1.0826 0.5366 l
1.0829 0.5364 l
1.0831 0.5362 l
1.0834 0.5359 l
1.0837 0.5357 l
1.0840 0.5354 l
1.0842 0.5351 l
1.0845 0.5349 l
1.0848 0.5346 l
1.0850 0.5343 l
1.0853 0.5340 l
1.0856 0.5337 l
1.0858 0.5334 l
1.0861 0.5332 l
1.0864 0.5329 l
1.0866 0.5326 l
1.0869 0.5323 l
1.0872 0.5321 l
1.0875 0.5318 l
1.0877 0.5316 l
1.0880 0.5314 l
1.0883 0.5312 l
1.0885 0.5310 l
1.0888 0.5308 l
1.0891 0.5307 l
1.0893 0.5306 l
1.0896 0.5304 l
1.0899 0.5303 l
1.0901 0.5302 l
1.0904 0.5301 l
1.0907 0.5300 l
1.0910 0.5300 l
1.0912 0.5299 l
1.0915 0.5298 l
1.0918 0.5297 l
1.0920 0.5296 l
1.0923 0.5294 l
1.0926 0.5293 l
1.0928 0.5291 l
1.0931 0.5289 l
1.0934 0.5287 l
1.0937 0.5285 l
1.0939 0.5283 l
1.0942 0.5280 l
1.0945 0.5278 l
1.0947 0.5275 l
1.0950 0.5272 l
1.0953 0.5269 l
1.0955 0.5266 l
1.0958 0.5263 l
1.0961 0.5261 l
1.0963 0.5258 l
1.0966 0.5256 l
1.0969 0.5253 l
1.0972 0.5252 l
1.0974 0.5250 l
1.0977 0.5249 l
1.0980 0.5247 l
1.0982 0.5247 l
1.0985 0.5246 l
1.0988 0.5246 l
1.0990 0.5246 l
1.0993 0.5247 l
1.0996 0.5247 l
1.0998 0.5248 l
1.1001 0.5249 l
1.1004 0.5250 l
1.1007 0.5250 l
1.1009 0.5251 l
1.1012 0.5252 l
1.1015 0.5252 l
1.1017 0.5252 l
1.1020 0.5252 l
1.1023 0.5251 l
1.1025 0.5251 l
1.1028 0.5249 l
1.1031 0.5248 l
1.1033 0.5246 l
1.1036 0.5243 l
1.1039 0.5241 l
1.1042 0.5238 l
1.1044 0.5234 l
1.1047 0.5231 l
1.1050 0.5227 l
1.1052 0.5224 l
1.1055 0.5220 l
1.1058 0.5217 l
1.1060 0.5214 l
1.1063 0.5211 l
1.1066 0.5208 l
1.1068 0.5206 l
1.1071 0.5204 l
1.1074 0.5202 l
1.1077 0.5202 l
1.1079 0.5201 l
1.1082 0.5201 l
1.1085 0.5202 l
1.1087 0.5203 l
1.1090 0.5205 l
1.1093 0.5206 l
1.1095 0.5209 l
1.1098 0.5211 l
1.1101 0.5213 l
1.1103 0.5216 l
1.1106 0.5218 l
1.1109 0.5220 l
1.1112 0.5222 l
1.1114 0.5224 l
1.1117 0.5225 l
1.1120 0.5225 l
1.1122 0.5225 l
1.1125 0.5225 l
1.1128 0.5224 l
1.1130 0.5222 l
1.1133 0.5219 l
1.1136 0.5216 l
1.1138 0.5213 l
1.1141 0.5209 l
1.1144 0.5204 l
1.1147 0.5200 l
1.1149 0.5195 l
1.1152 0.5190 l
1.1155 0.5185 l
1.1157 0.5180 l
1.1160 0.5175 l
1.1163 0.5171 l
1.1165 0.5168 l
1.1168 0.5164 l
1.1171 0.5162 l
1.1173 0.5160 l
1.1176 0.5159 l
1.1179 0.5159 l
1.1182 0.5160 l
1.1184 0.5161 l
1.1187 0.5164 l
1.1190 0.5166 l
1.1192 0.5170 l
1.1195 0.5174 l
1.1198 0.5178 l
1.1200 0.5182 l
1.1203 0.5187 l
1.1206 0.5191 l
1.1209 0.5196 l
1.1211 0.5200 l
1.1214 0.5203 l
1.1217 0.5206 l
1.1219 0.5208 l
1.1222 0.5210 l
1.1225 0.5210 l
1.1227 0.5210 l
1.1230 0.5208 l
1.1233 0.5206 l
1.1235 0.5203 l
1.1238 0.5199 l
1.1241 0.5194 l
1.1244 0.5188 l
1.1246 0.5182 l
1.1249 0.5176 l
1.1252 0.5169 l
1.1254 0.5162 l
1.1257 0.5154 l
1.1260 0.5148 l
1.1262 0.5141 l
1.1265 0.5135 l
1.1268 0.5130 l
1.1270 0.5125 l
1.1273 0.5121 l
1.1276 0.5119 l
1.1279 0.5117 l
1.1281 0.5116 l
1.1284 0.5117 l
1.1287 0.5119 l
1.1289 0.5121 l
1.1292 0.5125 l
1.1295 0.5129 l
1.1297 0.5135 l
1.1300 0.5140 l
1.1303 0.5147 l
1.1305 0.5153 l
1.1308 0.5160 l
1.1311 0.5166 l
1.1314 0.5173 l
1.1316 0.5178 l
1.1319 0.5184 l
1.1322 0.5188 l
1.1324 0.5191 l
1.1327 0.5194 l
1.1330 0.5195 l
1.1332 0.5195 l
1.1335 0.5194 l
1.1338 0.5191 l
1.1340 0.5187 l
1.1343 0.5183 l
1.1346 0.5177 l
1.1349 0.5170 l
1.1351 0.5163 l
1.1354 0.5155 l
1.1357 0.5146 l
1.1359 0.5137 l
1.1362 0.5129 l
1.1365 0.5120 l
1.1367 0.5112 l
1.1370 0.5104 l
1.1373 0.5098 l
1.1375 0.5092 l
1.1378 0.5087 l
1.1381 0.5083 l
1.1384 0.5081 l
1.1386 0.5080 l
1.1389 0.5081 l
1.1392 0.5082 l
1.1394 0.5086 l
1.1397 0.5090 l
1.1400 0.5096 l
1.1402 0.5102 l
1.1405 0.5109 l
1.1408 0.5118 l
1.1410 0.5126 l
1.1413 0.5135 l
1.1416 0.5144 l
1.1419 0.5152 l
1.1421 0.5160 l
1.1424 0.5168 l
1.1427 0.5175 l
1.1429 0.5180 l
1.1432 0.5185 l
1.1435 0.5188 l
1.1437 0.5190 l
1.1440 0.5190 l
1.1443 0.5189 l
1.1445 0.5187 l
1.1448 0.5182 l
1.1451 0.5177 l
1.1454 0.5170 l
1.1456 0.5162 l
1.1459 0.5153 l
1.1462 0.5144 l
1.1464 0.5133 l
1.1467 0.5123 l
1.1470 0.5112 l
1.1472 0.5101 l
1.1475 0.5091 l
1.1478 0.5081 l
1.1481 0.5073 l
1.1483 0.5065 l
1.1486 0.5058 l
1.1489 0.5053 l
1.1491 0.5049 l
1.1494 0.5047 l
1.1497 0.5047 l
1.1499 0.5048 l
1.1501 0.5050 l
s
[/DeviceRGB] SCS
Color2 SC
n
0.1863 0.1499 m
0.1864 0.1500 l
0.1873 0.1520 l
0.1882 0.1544 l
0.1891 0.1547 l
0.1900 0.1543 l
0.1909 0.1522 l
0.1918 0.1508 l
0.1924 0.1499 l
s
n
0.1959 0.1499 m
0.1964 0.1508 l
0.1973 0.1559 l
0.1982 0.1591 l
0.1991 0.1624 l
0.2000 0.1685 l
0.2009 0.1710 l
0.2018 0.1730 l
0.2027 0.1751 l
0.2036 0.1752 l
0.2045 0.1750 l
0.2054 0.1744 l
0.2063 0.1732 l
0.2073 0.1729 l
0.2082 0.1729 l
0.2091 0.1742 l
0.2100 0.1754 l
0.2109 0.1768 l
0.2118 0.1800 l
0.2127 0.1816 l
0.2136 0.1833 l
0.2145 0.1864 l
0.2154 0.1879 l
0.2163 0.1892 l
0.2172 0.1903 l
0.2181 0.1922 l
0.2190 0.1930 l
0.2199 0.1939 l
0.2209 0.1962 l
0.2218 0.1977 l
0.2227 0.1995 l
0.2236 0.2032 l
0.2245 0.2049 l
0.2254 0.2062 l
0.2263 0.2071 l
0.2272 0.2068 l
0.2281 0.2056 l
0.2290 0.2039 l
0.2299 0.1993 l
0.2308 0.1968 l
0.2317 0.1946 l
0.2326 0.1915 l
0.2335 0.1907 l
0.2345 0.1904 l
0.2354 0.1911 l
0.2363 0.1917 l
0.2372 0.1922 l
0.2381 0.1926 l
0.2390 0.1924 l
0.2399 0.1917 l
0.2408 0.1906 l
0.2417 0.1873 l
0.2426 0.1852 l
0.2435 0.1831 l
0.2444 0.1798 l
0.2453 0.1791 l
0.2462 0.1793 l
0.2471 0.1805 l
0.2481 0.1855 l
0.2490 0.1889 l
0.2499 0.1926 l
0.2508 0.1994 l
0.2517 0.2020 l
0.2526 0.2040 l
0.2535 0.2058 l
0.2544 0.2058 l
0.2553 0.2056 l
0.2562 0.2051 l
0.2571 0.2053 l
0.2580 0.2060 l
0.2589 0.2072 l
0.2598 0.2114 l
0.2607 0.2143 l
0.2617 0.2176 l
0.2626 0.2251 l
0.2635 0.2291 l
0.2644 0.2333 l
0.2653 0.2412 l
0.2662 0.2447 l
0.2671 0.2478 l
0.2680 0.2505 l
0.2689 0.2546 l
0.2698 0.2563 l
0.2707 0.2578 l
0.2716 0.2609 l
0.2725 0.2625 l
0.2734 0.2642 l
0.2743 0.2676 l
0.2753 0.2691 l
0.2762 0.2704 l
0.2771 0.2716 l
0.2780 0.2717 l
0.2789 0.2713 l
0.2798 0.2708 l
0.2807 0.2696 l
0.2816 0.2693 l
0.2825 0.2694 l
0.2834 0.2707 l
0.2843 0.2716 l
0.2852 0.2727 l
0.2861 0.2744 l
0.2870 0.2749 l
0.2879 0.2752 l
0.2889 0.2752 l
0.2898 0.2746 l
0.2907 0.2741 l
0.2916 0.2735 l
0.2925 0.2719 l
0.2934 0.2708 l
0.2943 0.2695 l
0.2952 0.2661 l
0.2961 0.2640 l
0.2970 0.2616 l
0.2979 0.2565 l
0.2988 0.2542 l
0.2997 0.2520 l
0.3006 0.2502 l
0.3015 0.2477 l
0.3025 0.2470 l
0.3034 0.2467 l
0.3043 0.2469 l
0.3052 0.2476 l
0.3061 0.2486 l
0.3070 0.2512 l
0.3079 0.2529 l
0.3088 0.2547 l
0.3097 0.2567 l
0.3106 0.2610 l
0.3115 0.2633 l
0.3124 0.2658 l
0.3133 0.2706 l
0.3142 0.2729 l
0.3151 0.2751 l
0.3161 0.2786 l
0.3170 0.2800 l
0.3179 0.2811 l
0.3188 0.2820 l
0.3197 0.2832 l
0.3206 0.2836 l
0.3215 0.2840 l
0.3224 0.2849 l
0.3233 0.2857 l
0.3242 0.2868 l
0.3251 0.2903 l
0.3260 0.2928 l
0.3269 0.2955 l
0.3278 0.3011 l
0.3287 0.3036 l
0.3297 0.3057 l
0.3306 0.3072 l
0.3315 0.3084 l
0.3324 0.3083 l
0.3333 0.3079 l
0.3342 0.3066 l
0.3351 0.3058 l
0.3360 0.3050 l
0.3369 0.3028 l
0.3378 0.3009 l
0.3387 0.2984 l
0.3396 0.2952 l
0.3405 0.2865 l
0.3414 0.2816 l
0.3423 0.2769 l
0.3433 0.2695 l
0.3442 0.2676 l
0.3451 0.2669 l
0.3460 0.2686 l
0.3469 0.2705 l
0.3478 0.2726 l
0.3487 0.2764 l
0.3496 0.2778 l
0.3505 0.2788 l
0.3514 0.2797 l
0.3523 0.2816 l
0.3532 0.2831 l
0.3541 0.2849 l
0.3550 0.2900 l
0.3559 0.2928 l
0.3569 0.2955 l
0.3578 0.3003 l
0.3587 0.3021 l
0.3596 0.3037 l
0.3605 0.3050 l
0.3614 0.3073 l
0.3623 0.3083 l
0.3632 0.3093 l
0.3641 0.3107 l
0.3650 0.3110 l
0.3659 0.3111 l
0.3668 0.3107 l
0.3677 0.3104 l
0.3686 0.3102 l
0.3695 0.3103 l
0.3705 0.3106 l
0.3714 0.3111 l
0.3723 0.3119 l
0.3732 0.3148 l
0.3741 0.3172 l
0.3750 0.3202 l
0.3759 0.3276 l
0.3768 0.3319 l
0.3777 0.3363 l
0.3786 0.3451 l
0.3795 0.3492 l
0.3804 0.3528 l
0.3813 0.3559 l
0.3822 0.3605 l
0.3831 0.3621 l
0.3841 0.3633 l
0.3850 0.3653 l
0.3859 0.3662 l
0.3868 0.3671 l
0.3877 0.3691 l
0.3886 0.3700 l
0.3895 0.3709 l
0.3904 0.3724 l
0.3913 0.3728 l
0.3922 0.3729 l
0.3931 0.3726 l
0.3940 0.3704 l
0.3949 0.3683 l
0.3958 0.3656 l
0.3967 0.3589 l
0.3977 0.3553 l
0.3986 0.3517 l
0.3995 0.3455 l
0.4004 0.3431 l
0.4013 0.3412 l
0.4022 0.3399 l
0.4031 0.3387 l
0.4040 0.3388 l
0.4049 0.3393 l
0.4058 0.3417 l
0.4067 0.3435 l
0.4076 0.3458 l
0.4085 0.3512 l
0.4094 0.3542 l
0.4103 0.3572 l
0.4113 0.3629 l
0.4122 0.3654 l
0.4131 0.3677 l
0.4140 0.3698 l
0.4149 0.3730 l
0.4158 0.3742 l
0.4167 0.3752 l
0.4176 0.3765 l
0.4185 0.3769 l
0.4194 0.3773 l
0.4203 0.3779 l
0.4212 0.3782 l
0.4221 0.3786 l
0.4230 0.3791 l
0.4239 0.3804 l
0.4249 0.3812 l
0.4258 0.3821 l
0.4267 0.3841 l
0.4276 0.3852 l
0.4285 0.3862 l
0.4294 0.3877 l
0.4303 0.3880 l
0.4312 0.3880 l
0.4321 0.3871 l
0.4330 0.3863 l
0.4339 0.3854 l
0.4348 0.3844 l
0.4357 0.3828 l
0.4366 0.3821 l
0.4375 0.3815 l
0.4385 0.3807 l
0.4394 0.3803 l
0.4403 0.3800 l
0.4412 0.3794 l
0.4421 0.3791 l
0.4430 0.3789 l
0.4439 0.3787 l
0.4448 0.3785 l
0.4457 0.3786 l
0.4466 0.3787 l
0.4475 0.3793 l
0.4484 0.3796 l
0.4493 0.3801 l
0.4502 0.3812 l
0.4511 0.3819 l
0.4521 0.3828 l
0.4530 0.3838 l
0.4539 0.3865 l
0.4548 0.3881 l
0.4557 0.3899 l
0.4566 0.3934 l
0.4575 0.3950 l
0.4584 0.3963 l
0.4593 0.3980 l
0.4602 0.3985 l
0.4611 0.3987 l
0.4620 0.3988 l
0.4629 0.3988 l
0.4638 0.3987 l
0.4647 0.3986 l
0.4657 0.3985 l
0.4666 0.3984 l
0.4675 0.3984 l
0.4684 0.3983 l
0.4693 0.3982 l
0.4702 0.3982 l
0.4711 0.3982 l
0.4720 0.3983 l
0.4729 0.3983 l
0.4738 0.3984 l
0.4747 0.3984 l
0.4756 0.3984 l
0.4765 0.3985 l
0.4774 0.3985 l
0.4783 0.3985 l
0.4793 0.3986 l
0.4802 0.3988 l
0.4811 0.3990 l
0.4820 0.3992 l
0.4829 0.3995 l
0.4838 0.3996 l
0.4847 0.3998 l
0.4856 0.4001 l
0.4865 0.4008 l
0.4874 0.4014 l
0.4883 0.4021 l
0.4892 0.4039 l
0.4901 0.4048 l
0.4910 0.4057 l
0.4919 0.4073 l
0.4929 0.4080 l
0.4938 0.4085 l
0.4947 0.4089 l
0.4956 0.4095 l
0.4965 0.4097 l
0.4974 0.4098 l
0.4983 0.4100 l
0.4992 0.4100 l
0.5001 0.4100 l
0.5010 0.4100 l
0.5019 0.4100 l
0.5028 0.4100 l
0.5037 0.4101 l
0.5046 0.4101 l
0.5055 0.4101 l
0.5065 0.4102 l
0.5074 0.4102 l
0.5083 0.4102 l
0.5092 0.4103 l
0.5101 0.4103 l
0.5110 0.4104 l
0.5119 0.4105 l
0.5128 0.4107 l
0.5137 0.4108 l
0.5146 0.4109 l
0.5155 0.4110 l
0.5164 0.4113 l
0.5173 0.4115 l
0.5182 0.4118 l
0.5191 0.4124 l
0.5201 0.4128 l
0.5210 0.4132 l
0.5219 0.4145 l
0.5228 0.4152 l
0.5237 0.4160 l
0.5246 0.4179 l
0.5255 0.4189 l
0.5264 0.4200 l
0.5273 0.4211 l
0.5282 0.4235 l
0.5291 0.4248 l
0.5300 0.4260 l
0.5309 0.4284 l
0.5318 0.4295 l
0.5327 0.4305 l
0.5337 0.4322 l
0.5346 0.4329 l
0.5355 0.4335 l
0.5364 0.4340 l
0.5373 0.4347 l
0.5382 0.4350 l
0.5391 0.4352 l
0.5400 0.4355 l
0.5409 0.4356 l
0.5418 0.4357 l
0.5427 0.4358 l
0.5436 0.4358 l
0.5445 0.4359 l
0.5454 0.4359 l
0.5463 0.4359 l
0.5473 0.4360 l
0.5482 0.4360 l
0.5491 0.4360 l
0.5500 0.4360 l
0.5509 0.4360 l
0.5518 0.4360 l
0.5527 0.4360 l
0.5536 0.4360 l
0.5545 0.4360 l
0.5554 0.4361 l
0.5563 0.4361 l
0.5572 0.4361 l
0.5581 0.4361 l
0.5590 0.4361 l
0.5599 0.4361 l
0.5609 0.4361 l
0.5618 0.4361 l
0.5627 0.4361 l
0.5636 0.4362 l
0.5645 0.4362 l
0.5654 0.4362 l
0.5663 0.4362 l
0.5672 0.4362 l
0.5681 0.4363 l
0.5690 0.4363 l
0.5699 0.4365 l
0.5708 0.4365 l
0.5717 0.4365 l
0.5726 0.4367 l
0.5735 0.4367 l
0.5745 0.4369 l
0.5754 0.4372 l
0.5763 0.4375 l
0.5772 0.4378 l
0.5781 0.4382 l
0.5790 0.4389 l
0.5799 0.4393 l
0.5808 0.4398 l
0.5817 0.4409 l
0.5826 0.4415 l
0.5835 0.4423 l
0.5844 0.4441 l
0.5853 0.4450 l
0.5862 0.4459 l
0.5871 0.4468 l
0.5881 0.4482 l
0.5890 0.4487 l
0.5899 0.4492 l
0.5908 0.4500 l
0.5917 0.4504 l
0.5926 0.4507 l
0.5935 0.4511 l
0.5944 0.4513 l
0.5953 0.4514 l
0.5962 0.4515 l
0.5971 0.4516 l
0.5980 0.4516 l
0.5989 0.4516 l
0.5998 0.4517 l
0.6007 0.4518 l
0.6017 0.4518 l
0.6026 0.4519 l
0.6035 0.4519 l
0.6044 0.4519 l
0.6053 0.4519 l
0.6062 0.4519 l
0.6071 0.4519 l
0.6080 0.4519 l
0.6089 0.4519 l
0.6098 0.4519 l
0.6107 0.4519 l
0.6116 0.4519 l
0.6125 0.4519 l
0.6134 0.4519 l
0.6143 0.4519 l
0.6153 0.4519 l
0.6162 0.4519 l
0.6171 0.4519 l
0.6180 0.4520 l
0.6189 0.4520 l
0.6198 0.4520 l
0.6207 0.4520 l
0.6216 0.4520 l
0.6225 0.4520 l
0.6234 0.4520 l
0.6243 0.4520 l
0.6252 0.4520 l
0.6261 0.4520 l
0.6270 0.4520 l
0.6279 0.4520 l
0.6289 0.4520 l
0.6298 0.4520 l
0.6307 0.4520 l
0.6316 0.4520 l
0.6325 0.4520 l
0.6334 0.4520 l
0.6343 0.4520 l
0.6352 0.4520 l
0.6361 0.4520 l
0.6370 0.4520 l
0.6379 0.4520 l
0.6388 0.4520 l
0.6397 0.4520 l
0.6406 0.4520 l
0.6415 0.4520 l
0.6425 0.4520 l
0.6434 0.4520 l
0.6443 0.4520 l
0.6452 0.4520 l
0.6461 0.4520 l
0.6470 0.4520 l
0.6479 0.4520 l
0.6488 0.4520 l
0.6497 0.4520 l
0.6506 0.4520 l
0.6515 0.4520 l
0.6524 0.4520 l
0.6533 0.4520 l
0.6542 0.4520 l
0.6551 0.4520 l
0.6561 0.4520 l
0.6570 0.4520 l
0.6579 0.4520 l
0.6588 0.4520 l
0.6597 0.4520 l
0.6606 0.4520 l
0.6615 0.4520 l
0.6624 0.4520 l
0.6633 0.4520 l
0.6642 0.4520 l
0.6651 0.4520 l
0.6660 0.4520 l
0.6669 0.4520 l
0.6678 0.4520 l
0.6687 0.4520 l
0.6697 0.4520 l
0.6706 0.4520 l
0.6715 0.4520 l
0.6724 0.4520 l
0.6733 0.4520 l
0.6742 0.4520 l
0.6751 0.4520 l
0.6760 0.4520 l
0.6769 0.4520 l
0.6778 0.4520 l
0.6787 0.4520 l
0.6796 0.4520 l
0.6805 0.4520 l
0.6814 0.4520 l
0.6823 0.4520 l
0.6833 0.4520 l
0.6842 0.4520 l
0.6851 0.4520 l
0.6860 0.4520 l
0.6869 0.4520 l
0.6878 0.4520 l
0.6887 0.4520 l
0.6896 0.4520 l
0.6905 0.4520 l
0.6914 0.4520 l
0.6923 0.4520 l
0.6932 0.4520 l
0.6941 0.4520 l
0.6950 0.4520 l
0.6959 0.4520 l
0.6969 0.4521 l
0.6978 0.4521 l
0.6987 0.4521 l
0.6996 0.4521 l
0.7005 0.4521 l
0.7014 0.4521 l
0.7023 0.4521 l
0.7032 0.4522 l
0.7041 0.4522 l
0.7050 0.4523 l
0.7059 0.4523 l
0.7068 0.4524 l
0.7077 0.4525 l
0.7086 0.4526 l
0.7095 0.4527 l
0.7105 0.4529 l
0.7114 0.4530 l
0.7123 0.4532 l
0.7132 0.4538 l
0.7141 0.4542 l
0.7150 0.4547 l
0.7159 0.4559 l
0.7168 0.4567 l
0.7177 0.4575 l
0.7186 0.4594 l
0.7195 0.4605 l
0.7204 0.4615 l
0.7213 0.4626 l
0.7222 0.4647 l
0.7231 0.4656 l
0.7241 0.4664 l
0.7250 0.4678 l
0.7259 0.4683 l
0.7268 0.4688 l
0.7277 0.4696 l
0.7286 0.4699 l
0.7295 0.4701 l
0.7304 0.4706 l
0.7313 0.4707 l
0.7322 0.4708 l
0.7331 0.4709 l
0.7340 0.4711 l
0.7349 0.4711 l
0.7358 0.4712 l
0.7367 0.4713 l
0.7377 0.4713 l
0.7386 0.4713 l
0.7395 0.4714 l
0.7404 0.4714 l
0.7413 0.4714 l
0.7422 0.4714 l
0.7431 0.4714 l
0.7440 0.4715 l
0.7449 0.4715 l
0.7458 0.4715 l
0.7467 0.4715 l
0.7476 0.4715 l
0.7485 0.4715 l
0.7494 0.4715 l
0.7503 0.4715 l
0.7513 0.4715 l
0.7522 0.4715 l
0.7531 0.4715 l
0.7540 0.4715 l
0.7549 0.4715 l
0.7558 0.4715 l
0.7567 0.4716 l
0.7576 0.4716 l
0.7585 0.4716 l
0.7594 0.4716 l
0.7603 0.4716 l
0.7612 0.4716 l
0.7621 0.4716 l
0.7630 0.4716 l
0.7639 0.4716 l
0.7649 0.4716 l
0.7658 0.4716 l
0.7667 0.4716 l
0.7676 0.4716 l
0.7685 0.4716 l
0.7694 0.4716 l
0.7703 0.4716 l
0.7712 0.4716 l
0.7721 0.4716 l
0.7730 0.4716 l
0.7739 0.4716 l
0.7748 0.4716 l
0.7757 0.4716 l
0.7766 0.4716 l
0.7775 0.4716 l
0.7785 0.4716 l
0.7794 0.4716 l
0.7803 0.4716 l
0.7812 0.4716 l
0.7821 0.4716 l
0.7830 0.4716 l
0.7839 0.4716 l
0.7848 0.4716 l
0.7857 0.4716 l
0.7866 0.4716 l
0.7875 0.4716 l
0.7884 0.4716 l
0.7893 0.4716 l
0.7902 0.4716 l
0.7911 0.4716 l
0.7921 0.4716 l
0.7930 0.4716 l
0.7939 0.4716 l
0.7948 0.4716 l
0.7957 0.4716 l
0.7966 0.4716 l
0.7975 0.4716 l
0.7984 0.4716 l
0.7993 0.4716 l
0.8002 0.4716 l
0.8011 0.4716 l
0.8020 0.4716 l
0.8029 0.4716 l
0.8038 0.4716 l
0.8047 0.4716 l
0.8057 0.4716 l
0.8066 0.4716 l
0.8075 0.4716 l
0.8084 0.4716 l
0.8093 0.4716 l
0.8102 0.4716 l
0.8111 0.4716 l
0.8120 0.4716 l
0.8129 0.4716 l
0.8138 0.4716 l
0.8147 0.4716 l
0.8156 0.4716 l
0.8165 0.4716 l
0.8174 0.4716 l
0.8183 0.4716 l
0.8193 0.4716 l
0.8202 0.4716 l
0.8211 0.4716 l
0.8220 0.4716 l
0.8229 0.4716 l
0.8238 0.4716 l
0.8247 0.4716 l
0.8256 0.4716 l
0.8265 0.4716 l
0.8274 0.4716 l
0.8283 0.4716 l
0.8292 0.4716 l
0.8301 0.4716 l
0.8310 0.4716 l
0.8319 0.4716 l
0.8329 0.4716 l
0.8338 0.4716 l
0.8347 0.4716 l
0.8356 0.4716 l
0.8365 0.4716 l
0.8374 0.4716 l
0.8383 0.4716 l
0.8392 0.4716 l
0.8401 0.4716 l
0.8410 0.4716 l
0.8419 0.4716 l
0.8428 0.4716 l
0.8437 0.4717 l
0.8446 0.4717 l
0.8455 0.4717 l
0.8465 0.4717 l
0.8474 0.4717 l
0.8483 0.4717 l
0.8492 0.4718 l
0.8501 0.4720 l
0.8510 0.4721 l
0.8519 0.4723 l
0.8528 0.4726 l
0.8537 0.4728 l
0.8546 0.4732 l
0.8555 0.4741 l
0.8564 0.4748 l
0.8573 0.4757 l
0.8582 0.4767 l
0.8591 0.4789 l
0.8601 0.4801 l
0.8610 0.4812 l
0.8619 0.4834 l
0.8628 0.4844 l
0.8637 0.4853 l
0.8646 0.4869 l
0.8655 0.4876 l
0.8664 0.4882 l
0.8673 0.4887 l
0.8682 0.4895 l
0.8691 0.4897 l
0.8700 0.4900 l
0.8709 0.4903 l
0.8718 0.4904 l
0.8727 0.4905 l
0.8737 0.4907 l
0.8746 0.4908 l
0.8755 0.4909 l
0.8764 0.4910 l
0.8773 0.4911 l
0.8782 0.4911 l
0.8791 0.4911 l
0.8800 0.4912 l
0.8809 0.4912 l
0.8818 0.4912 l
0.8827 0.4912 l
0.8836 0.4913 l
0.8845 0.4913 l
0.8854 0.4913 l
0.8863 0.4913 l
0.8873 0.4913 l
0.8882 0.4913 l
0.8891 0.4913 l
0.8900 0.4913 l
0.8909 0.4913 l
0.8918 0.4914 l
0.8927 0.4914 l
0.8936 0.4914 l
0.8945 0.4914 l
0.8954 0.4914 l
0.8963 0.4914 l
0.8972 0.4914 l
0.8981 0.4914 l
0.8990 0.4914 l
0.8999 0.4914 l
0.9009 0.4913 l
0.9018 0.4913 l
0.9027 0.4913 l
0.9036 0.4913 l
0.9045 0.4913 l
0.9054 0.4913 l
0.9063 0.4912 l
0.9072 0.4912 l
0.9081 0.4912 l
0.9090 0.4912 l
0.9099 0.4914 l
0.9108 0.4916 l
0.9117 0.4920 l
0.9126 0.4933 l
0.9135 0.4943 l
0.9145 0.4954 l
0.9154 0.4978 l
0.9163 0.4990 l
0.9172 0.5002 l
0.9181 0.5013 l
0.9190 0.5032 l
0.9199 0.5039 l
0.9208 0.5046 l
0.9217 0.5056 l
0.9226 0.5059 l
0.9235 0.5063 l
0.9244 0.5067 l
0.9253 0.5068 l
0.9262 0.5070 l
0.9271 0.5071 l
0.9281 0.5072 l
0.9290 0.5073 l
0.9299 0.5073 l
0.9308 0.5075 l
0.9317 0.5075 l
0.9326 0.5076 l
0.9335 0.5076 l
0.9344 0.5076 l
0.9353 0.5076 l
0.9362 0.5077 l
0.9371 0.5077 l
0.9380 0.5077 l
0.9389 0.5078 l
0.9398 0.5080 l
0.9407 0.5081 l
0.9417 0.5081 l
0.9426 0.5082 l
0.9435 0.5083 l
0.9444 0.5084 l
0.9453 0.5087 l
0.9462 0.5090 l
0.9471 0.5094 l
0.9480 0.5103 l
0.9489 0.5107 l
0.9498 0.5112 l
0.9507 0.5116 l
0.9516 0.5125 l
0.9525 0.5130 l
0.9534 0.5136 l
0.9543 0.5152 l
0.9553 0.5161 l
0.9562 0.5170 l
0.9571 0.5185 l
0.9580 0.5191 l
0.9589 0.5196 l
0.9598 0.5199 l
0.9607 0.5205 l
0.9616 0.5208 l
0.9625 0.5210 l
0.9634 0.5215 l
0.9643 0.5216 l
0.9652 0.5218 l
0.9661 0.5219 l
0.9670 0.5219 l
0.9679 0.5219 l
0.9689 0.5219 l
0.9698 0.5219 l
0.9707 0.5219 l
0.9716 0.5220 l
0.9725 0.5222 l
0.9734 0.5222 l
0.9743 0.5222 l
0.9752 0.5223 l
0.9761 0.5223 l
0.9770 0.5224 l
0.9779 0.5229 l
0.9788 0.5233 l
0.9797 0.5239 l
0.9806 0.5245 l
0.9815 0.5263 l
0.9825 0.5274 l
0.9834 0.5286 l
0.9843 0.5315 l
0.9852 0.5331 l
0.9861 0.5349 l
0.9870 0.5386 l
0.9879 0.5404 l
0.9888 0.5420 l
0.9897 0.5446 l
0.9906 0.5456 l
0.9915 0.5464 l
0.9924 0.5471 l
0.9933 0.5482 l
0.9942 0.5486 l
0.9951 0.5490 l
0.9961 0.5495 l
0.9970 0.5496 l
0.9979 0.5497 l
0.9988 0.5496 l
0.9997 0.5495 l
1.0006 0.5493 l
1.0015 0.5491 l
1.0024 0.5486 l
1.0033 0.5483 l
1.0042 0.5479 l
1.0051 0.5471 l
1.0060 0.5467 l
1.0069 0.5464 l
1.0078 0.5463 l
1.0087 0.5465 l
1.0097 0.5469 l
1.0106 0.5476 l
1.0115 0.5496 l
1.0124 0.5508 l
1.0133 0.5522 l
1.0142 0.5551 l
1.0151 0.5564 l
1.0160 0.5576 l
1.0169 0.5596 l
1.0178 0.5603 l
1.0187 0.5608 l
1.0196 0.5615 l
1.0205 0.5618 l
1.0214 0.5619 l
1.0223 0.5621 l
1.0233 0.5621 l
1.0242 0.5621 l
1.0251 0.5619 l
1.0260 0.5615 l
1.0269 0.5612 l
1.0278 0.5609 l
1.0287 0.5603 l
1.0296 0.5599 l
1.0305 0.5595 l
1.0314 0.5592 l
1.0323 0.5586 l
1.0332 0.5585 l
1.0341 0.5585 l
1.0350 0.5590 l
1.0359 0.5595 l
1.0369 0.5599 l
1.0378 0.5608 l
1.0387 0.5611 l
1.0396 0.5615 l
1.0405 0.5624 l
1.0414 0.5629 l
1.0423 0.5636 l
1.0432 0.5644 l
1.0441 0.5670 l
1.0450 0.5686 l
1.0459 0.5705 l
1.0468 0.5745 l
1.0477 0.5764 l
1.0486 0.5779 l
1.0495 0.5797 l
1.0505 0.5799 l
1.0514 0.5798 l
1.0523 0.5794 l
1.0532 0.5782 l
1.0541 0.5778 l
1.0550 0.5775 l
1.0559 0.5779 l
1.0568 0.5786 l
1.0577 0.5796 l
1.0586 0.5826 l
1.0595 0.5845 l
1.0604 0.5866 l
1.0613 0.5914 l
1.0622 0.5940 l
1.0631 0.5964 l
1.0641 0.5987 l
1.0650 0.6021 l
1.0659 0.6030 l
1.0668 0.6033 l
1.0677 0.6024 l
1.0686 0.6014 l
1.0695 0.6004 l
1.0704 0.5990 l
1.0713 0.5989 l
1.0722 0.5991 l
1.0731 0.5994 l
1.0740 0.5996 l
1.0749 0.5989 l
1.0758 0.5977 l
1.0767 0.5939 l
1.0777 0.5916 l
1.0786 0.5895 l
1.0795 0.5868 l
1.0804 0.5864 l
1.0813 0.5866 l
1.0822 0.5883 l
1.0831 0.5894 l
1.0840 0.5905 l
1.0849 0.5915 l
1.0858 0.5933 l
1.0867 0.5941 l
1.0876 0.5949 l
1.0885 0.5962 l
1.0894 0.5967 l
1.0903 0.5970 l
1.0913 0.5969 l
1.0922 0.5964 l
1.0931 0.5956 l
1.0940 0.5946 l
1.0949 0.5920 l
1.0958 0.5905 l
1.0967 0.5892 l
1.0976 0.5872 l
1.0985 0.5868 l
1.0994 0.5867 l
1.1003 0.5881 l
1.1012 0.5896 l
1.1021 0.5917 l
1.1030 0.5976 l
1.1039 0.6012 l
1.1049 0.6051 l
1.1058 0.6090 l
1.1067 0.6154 l
1.1076 0.6174 l
1.1085 0.6185 l
1.1094 0.6174 l
1.1103 0.6155 l
1.1112 0.6130 l
1.1121 0.6073 l
1.1130 0.6044 l
1.1139 0.6018 l
1.1148 0.5995 l
1.1157 0.5965 l
1.1166 0.5958 l
1.1175 0.5957 l
1.1185 0.5977 l
1.1194 0.5997 l
1.1203 0.6024 l
1.1212 0.6100 l
1.1221 0.6147 l
1.1230 0.6201 l
1.1239 0.6318 l
1.1248 0.6378 l
1.1257 0.6434 l
1.1266 0.6482 l
1.1275 0.6549 l
1.1284 0.6564 l
1.1293 0.6567 l
1.1302 0.6546 l
1.1311 0.6527 l
1.1321 0.6508 l
1.1330 0.6478 l
1.1339 0.6472 l
1.1348 0.6473 l
1.1357 0.6480 l
1.1366 0.6511 l
1.1375 0.6531 l
1.1384 0.6553 l
1.1393 0.6600 l
1.1402 0.6626 l
1.1411 0.6653 l
1.1420 0.6715 l
1.1429 0.6749 l
1.1438 0.6786 l
1.1447 0.6825 l
1.1457 0.6902 l
1.1466 0.6939 l
1.1475 0.6973 l
1.1484 0.7022 l
1.1493 0.7035 l
1.1501 0.7037 l
s
[/DeviceRGB] SCS
Color1 SC
n
0.1500 0.1500 m
1.1500 0.1500 l
s
n
0.1500 0.8500 m
1.1500 0.8500 l
s
n
0.2453 0.1500 m
0.2453 0.1600 l
s
n
0.2453 0.8500 m
0.2453 0.8400 l
s
n
0.3813 0.1500 m
0.3813 0.1600 l
s
n
0.3813 0.8500 m
0.3813 0.8400 l
s
n
0.5173 0.1500 m
0.5173 0.1600 l
s
n
0.5173 0.8500 m
0.5173 0.8400 l
s
n
0.6533 0.1500 m
0.6533 0.1600 l
s
n
0.6533 0.8500 m
0.6533 0.8400 l
s
n
0.7893 0.1500 m
0.7893 0.1600 l
s
n
0.7893 0.8500 m
0.7893 0.8400 l
s
n
0.9253 0.1500 m
0.9253 0.1600 l
s
n
0.9253 0.8500 m
0.9253 0.8400 l
s
n
1.0613 0.1500 m
1.0613 0.1600 l
s
n
1.0613 0.8500 m
1.0613 0.8400 l
s
n
0.1773 0.1500 m
0.1773 0.1700 l
s
n
0.1773 0.8500 m
0.1773 0.8300 l
s
n
0.3133 0.1500 m
0.3133 0.1700 l
s
n
0.3133 0.8500 m
0.3133 0.8300 l
s
n
0.4493 0.1500 m
0.4493 0.1700 l
s
n
0.4493 0.8500 m
0.4493 0.8300 l
s
n
0.5853 0.1500 m
0.5853 0.1700 l
s
n
0.5853 0.8500 m
0.5853 0.8300 l
s
n
0.7213 0.1500 m
0.7213 0.1700 l
s
n
0.7213 0.8500 m
0.7213 0.8300 l
s
n
0.8573 0.1500 m
0.8573 0.1700 l
s
n
0.8573 0.8500 m
0.8573 0.8300 l
s
n
0.9933 0.1500 m
0.9933 0.1700 l
s
n
0.9933 0.8500 m
0.9933 0.8300 l
s
n
1.1293 0.1500 m
1.1293 0.1700 l
s
n
1.1293 0.8500 m
1.1293 0.8300 l
s
/Times-Roman findfont
dup length dict begin
 {1 index /FID ne {def} {pop pop} ifelse} forall
 /Encoding DefEncoding def
 currentdict
end
/Font34 exch definefont pop
/Font34 FFSF
0.1560 0.1212 m
GS
[0.0280 0.0000 0.0000 0.0280 0 0] CC
(-0.8) show
GR
/Font34 FFSF
0.2918 0.1208 m
GS
[0.0280 0.0000 0.0000 0.0280 0 0] CC
(-0.6) show
GR
/Font34 FFSF
0.4276 0.1212 m
GS
[0.0280 0.0000 0.0000 0.0280 0 0] CC
(-0.4) show
GR
/Font34 FFSF
0.5636 0.1212 m
GS
[0.0280 0.0000 0.0000 0.0280 0 0] CC
(-0.2) show
GR
/Font34 FFSF
0.7147 0.1212 m
GS
[0.0280 0.0000 0.0000 0.0280 0 0] CC
(0) show
GR
/Font34 FFSF
0.8401 0.1212 m
GS
[0.0280 0.0000 0.0000 0.0280 0 0] CC
(0.2) show
GR
/Font34 FFSF
0.9761 0.1212 m
GS
[0.0280 0.0000 0.0000 0.0280 0 0] CC
(0.4) show
GR
/Font34 FFSF
1.1123 0.1208 m
GS
[0.0280 0.0000 0.0000 0.0280 0 0] CC
(0.6) show
GR
n
0.1500 0.1500 m
0.1500 0.8500 l
s
n
1.1500 0.1500 m
1.1500 0.8500 l
s
n
0.1500 0.2677 m
0.1600 0.2677 l
s
n
1.1500 0.2677 m
1.1400 0.2677 l
s
n
0.1500 0.3911 m
0.1600 0.3911 l
s
n
1.1500 0.3911 m
1.1400 0.3911 l
s
n
0.1500 0.5145 m
0.1600 0.5145 l
s
n
1.1500 0.5145 m
1.1400 0.5145 l
s
n
0.1500 0.6379 m
0.1600 0.6379 l
s
n
1.1500 0.6379 m
1.1400 0.6379 l
s
n
0.1500 0.7613 m
0.1600 0.7613 l
s
n
1.1500 0.7613 m
1.1400 0.7613 l
s
n
0.1500 0.2060 m
0.1700 0.2060 l
s
n
1.1500 0.2060 m
1.1300 0.2060 l
s
n
0.1500 0.3294 m
0.1700 0.3294 l
s
n
1.1500 0.3294 m
1.1300 0.3294 l
s
n
0.1500 0.4528 m
0.1700 0.4528 l
s
n
1.1500 0.4528 m
1.1300 0.4528 l
s
n
0.1500 0.5762 m
0.1700 0.5762 l
s
n
1.1500 0.5762 m
1.1300 0.5762 l
s
n
0.1500 0.6996 m
0.1700 0.6996 l
s
n
1.1500 0.6996 m
1.1300 0.6996 l
s
n
0.1500 0.8230 m
0.1700 0.8230 l
s
n
1.1500 0.8230 m
1.1300 0.8230 l
s
/Font34 FFSF
0.1196 0.1966 m
GS
[0.0280 0.0000 0.0000 0.0280 0 0] CC
(-1) show
GR
/Font34 FFSF
0.0976 0.3200 m
GS
[0.0280 0.0000 0.0000 0.0280 0 0] CC
(-0.5) show
GR
/Font34 FFSF
0.1267 0.4436 m
GS
[0.0280 0.0000 0.0000 0.0280 0 0] CC
(0) show
GR
/Font34 FFSF
0.1067 0.5668 m
GS
[0.0280 0.0000 0.0000 0.0280 0 0] CC
(0.5) show
GR
/Font34 FFSF
0.1290 0.6902 m
GS
[0.0280 0.0000 0.0000 0.0280 0 0] CC
(1) show
GR
/Font34 FFSF
0.1067 0.8136 m
GS
[0.0280 0.0000 0.0000 0.0280 0 0] CC
(1.5) show
GR
n
0.1500 0.1500 m
0.1500 0.8500 l
1.1500 0.8500 l
1.1500 0.1500 l
0.1500 0.1500 l
c
s
showpage
%%PageTrailer
%%Trailer
%%DocumentNeededResources: font Times-Roman
%%EOF
